[gd_resource type="AudioStreamOGGVorbis" format=2]

[resource]
data = PoolByteArray( 79, 103, 103, 83, 0, 2, 0, 0, 0, 0, 0, 0, 0, 0, 74, 225, 57, 5, 0, 0, 0, 0, 197, 155, 35, 63, 1, 30, 1, 118, 111, 114, 98, 105, 115, 0, 0, 0, 0, 2, 68, 172, 0, 0, 255, 255, 255, 255, 0, 244, 1, 0, 255, 255, 255, 255, 184, 1, 79, 103, 103, 83, 0, 0, 0, 0, 0, 0, 0, 0, 0, 0, 74, 225, 57, 5, 1, 0, 0, 0, 117, 56, 65, 69, 18, 96, 255, 255, 255, 255, 255, 255, 255, 255, 255, 255, 255, 255, 255, 255, 255, 255, 60, 3, 118, 111, 114, 98, 105, 115, 52, 0, 0, 0, 88, 105, 112, 104, 46, 79, 114, 103, 32, 108, 105, 98, 86, 111, 114, 98, 105, 115, 32, 73, 32, 50, 48, 50, 48, 48, 55, 48, 52, 32, 40, 82, 101, 100, 117, 99, 105, 110, 103, 32, 69, 110, 118, 105, 114, 111, 110, 109, 101, 110, 116, 41, 1, 0, 0, 0, 24, 0, 0, 0, 69, 78, 67, 79, 68, 69, 82, 61, 86, 76, 67, 32, 109, 101, 100, 105, 97, 32, 112, 108, 97, 121, 101, 114, 1, 5, 118, 111, 114, 98, 105, 115, 41, 66, 67, 86, 1, 0, 8, 0, 0, 128, 34, 76, 24, 196, 128, 208, 144, 85, 0, 0, 16, 0, 0, 160, 172, 55, 150, 123, 200, 189, 247, 222, 123, 129, 168, 71, 20, 123, 136, 189, 247, 222, 123, 227, 172, 71, 208, 122, 136, 185, 247, 222, 123, 238, 189, 167, 26, 123, 203, 189, 247, 222, 115, 32, 52, 100, 21, 0, 0, 4, 0, 128, 41, 8, 154, 114, 224, 66, 234, 189, 247, 30, 25, 230, 17, 81, 26, 42, 199, 189, 247, 30, 25, 133, 137, 48, 148, 25, 133, 61, 149, 218, 90, 235, 33, 147, 220, 66, 234, 61, 231, 30, 8, 13, 89, 5, 0, 0, 2, 0, 64, 8, 33, 132, 20, 82, 72, 33, 133, 20, 82, 72, 33, 133, 20, 82, 72, 41, 165, 152, 98, 138, 41, 166, 152, 98, 202, 41, 167, 28, 115, 204, 49, 199, 32, 131, 14, 58, 232, 164, 147, 80, 66, 9, 41, 164, 80, 74, 42, 169, 164, 148, 82, 74, 45, 214, 90, 115, 238, 189, 7, 221, 115, 239, 65, 248, 32, 132, 16, 66, 8, 33, 132, 16, 66, 8, 33, 132, 16, 66, 8, 66, 67, 86, 1, 0, 32, 0, 0, 4, 66, 8, 33, 100, 16, 66, 8, 33, 132, 20, 82, 72, 33, 166, 152, 98, 202, 41, 167, 128, 208, 144, 85, 0, 0, 32, 0, 128, 0, 0, 0, 0, 73, 145, 20, 203, 177, 28, 205, 209, 28, 205, 241, 28, 207, 17, 37, 81, 18, 37, 209, 50, 45, 211, 82, 53, 83, 51, 61, 85, 84, 69, 213, 84, 85, 87, 85, 93, 93, 119, 109, 213, 118, 109, 213, 150, 109, 215, 86, 109, 213, 118, 109, 213, 86, 109, 89, 182, 109, 219, 182, 109, 219, 182, 109, 219, 182, 109, 219, 182, 109, 219, 182, 109, 32, 52, 100, 21, 0, 32, 1, 0, 160, 35, 57, 146, 35, 41, 146, 34, 41, 146, 227, 56, 146, 4, 132, 134, 172, 2, 0, 100, 0, 0, 4, 0, 160, 40, 138, 227, 56, 142, 228, 72, 142, 37, 105, 146, 102, 121, 150, 103, 137, 154, 168, 153, 154, 232, 169, 158, 10, 132, 134, 172, 2, 0, 0, 1, 0, 4, 0, 0, 0, 0, 0, 224, 120, 138, 231, 120, 142, 103, 121, 146, 231, 120, 142, 103, 121, 154, 167, 105, 154, 166, 105, 154, 166, 105, 154, 166, 105, 154, 166, 105, 154, 166, 105, 154, 166, 105, 154, 166, 105, 154, 166, 105, 154, 166, 105, 154, 166, 105, 154, 166, 105, 154, 166, 105, 154, 166, 105, 154, 166, 105, 64, 104, 200, 42, 0, 64, 2, 0, 64, 199, 113, 28, 199, 113, 28, 199, 113, 28, 71, 114, 36, 7, 8, 13, 89, 5, 0, 200, 0, 0, 8, 0, 64, 82, 36, 199, 114, 44, 71, 115, 52, 199, 115, 60, 71, 116, 68, 199, 116, 76, 201, 148, 84, 201, 181, 92, 11, 8, 13, 89, 5, 0, 0, 2, 0, 8, 0, 0, 0, 0, 0, 64, 19, 44, 69, 83, 60, 199, 147, 60, 207, 19, 53, 207, 211, 52, 205, 19, 77, 81, 52, 77, 211, 52, 77, 211, 52, 77, 211, 52, 77, 211, 52, 77, 211, 52, 77, 211, 52, 77, 211, 52, 77, 211, 52, 77, 211, 52, 77, 211, 52, 77, 211, 52, 77, 211, 52, 77, 83, 20, 129, 208, 144, 85, 0, 0, 4, 0, 0, 33, 157, 102, 150, 106, 128, 8, 51, 144, 97, 32, 52, 100, 21, 0, 128, 0, 0, 0, 24, 161, 8, 67, 12, 8, 13, 89, 5, 0, 0, 4, 0, 0, 136, 161, 228, 32, 154, 208, 154, 243, 205, 57, 14, 154, 229, 160, 169, 20, 155, 211, 193, 137, 84, 155, 39, 185, 169, 152, 155, 115, 206, 57, 231, 156, 108, 206, 25, 227, 156, 115, 206, 41, 202, 153, 197, 160, 153, 208, 154, 115, 206, 73, 12, 154, 165, 160, 153, 208, 154, 115, 206, 121, 18, 155, 7, 173, 169, 210, 154, 115, 206, 25, 231, 156, 14, 198, 25, 97, 156, 115, 206, 105, 210, 154, 7, 169, 217, 88, 155, 115, 206, 89, 208, 154, 230, 168, 185, 20, 155, 115, 206, 137, 148, 155, 39, 181, 185, 84, 155, 115, 206, 57, 231, 156, 115, 206, 57, 231, 156, 115, 206, 169, 94, 156, 206, 193, 57, 225, 156, 115, 206, 137, 218, 155, 107, 185, 9, 93, 156, 115, 206, 249, 100, 156, 238, 205, 9, 225, 156, 115, 206, 57, 231, 156, 115, 206, 57, 231, 156, 115, 206, 9, 66, 67, 86, 1, 0, 64, 0, 0, 4, 97, 216, 24, 198, 157, 130, 32, 125, 142, 6, 98, 20, 33, 166, 33, 147, 30, 116, 143, 14, 147, 160, 49, 200, 41, 164, 30, 141, 142, 70, 74, 169, 131, 80, 82, 25, 39, 165, 116, 130, 208, 144, 85, 0, 0, 32, 0, 0, 132, 16, 82, 72, 33, 133, 20, 82, 72, 33, 133, 20, 82, 72, 33, 134, 24, 98, 136, 33, 167, 156, 114, 10, 42, 168, 164, 146, 138, 42, 202, 40, 179, 204, 50, 203, 44, 179, 204, 50, 203, 172, 195, 206, 58, 235, 176, 195, 16, 67, 12, 49, 180, 210, 74, 44, 53, 213, 86, 99, 141, 181, 230, 158, 115, 174, 57, 72, 107, 165, 181, 214, 90, 43, 165, 148, 82, 74, 41, 165, 32, 52, 100, 21, 0, 0, 2, 0, 64, 32, 100, 144, 65, 6, 25, 133, 20, 82, 72, 33, 134, 152, 114, 202, 41, 167, 160, 130, 10, 8, 13, 89, 5, 0, 0, 2, 0, 8, 0, 0, 0, 240, 36, 207, 17, 29, 209, 17, 29, 209, 17, 29, 209, 17, 29, 209, 17, 29, 207, 241, 28, 81, 18, 37, 81, 18, 37, 209, 50, 45, 83, 51, 61, 85, 84, 85, 87, 118, 109, 89, 151, 117, 219, 183, 133, 93, 216, 117, 223, 215, 125, 223, 215, 141, 95, 23, 134, 101, 89, 150, 101, 89, 150, 101, 89, 150, 101, 89, 150, 101, 89, 150, 101, 9, 66, 67, 86, 1, 0, 32, 0, 0, 0, 66, 8, 33, 132, 20, 82, 72, 33, 133, 148, 98, 140, 49, 199, 156, 131, 78, 66, 9, 129, 208, 144, 85, 0, 0, 32, 0, 128, 0, 0, 0, 0, 71, 113, 20, 199, 145, 28, 201, 145, 36, 75, 178, 36, 77, 210, 44, 205, 242, 52, 79, 243, 52, 209, 19, 69, 81, 52, 77, 83, 21, 93, 209, 21, 117, 211, 22, 101, 83, 54, 93, 211, 53, 101, 211, 85, 101, 213, 118, 101, 217, 182, 101, 91, 183, 125, 89, 182, 125, 223, 247, 125, 223, 247, 125, 223, 247, 125, 223, 247, 125, 223, 215, 117, 32, 52, 100, 21, 0, 32, 1, 0, 160, 35, 57, 146, 34, 41, 146, 34, 57, 142, 227, 72, 146, 4, 132, 134, 172, 2, 0, 100, 0, 0, 4, 0, 160, 40, 142, 226, 56, 142, 35, 73, 146, 36, 89, 146, 38, 121, 150, 103, 137, 154, 169, 153, 158, 233, 169, 162, 10, 132, 134, 172, 2, 0, 0, 1, 0, 4, 0, 0, 0, 0, 0, 160, 104, 138, 167, 152, 138, 167, 136, 138, 231, 136, 142, 40, 137, 150, 105, 137, 154, 170, 185, 162, 108, 202, 174, 235, 186, 174, 235, 186, 174, 235, 186, 174, 235, 186, 174, 235, 186, 174, 235, 186, 174, 235, 186, 174, 235, 186, 174, 235, 186, 174, 235, 186, 174, 235, 186, 174, 235, 186, 64, 104, 200, 42, 0, 64, 2, 0, 64, 71, 114, 36, 71, 114, 36, 69, 82, 36, 69, 114, 36, 7, 8, 13, 89, 5, 0, 200, 0, 0, 8, 0, 192, 49, 28, 67, 82, 36, 199, 178, 44, 77, 243, 52, 79, 243, 52, 209, 19, 61, 209, 51, 61, 85, 116, 69, 23, 8, 13, 89, 5, 0, 0, 2, 0, 8, 0, 0, 0, 0, 0, 192, 144, 12, 75, 177, 28, 205, 209, 36, 81, 82, 45, 213, 82, 53, 213, 82, 45, 85, 84, 61, 85, 85, 85, 85, 85, 85, 85, 85, 85, 85, 85, 85, 85, 85, 85, 85, 85, 85, 85, 85, 85, 85, 85, 85, 85, 85, 85, 85, 85, 85, 85, 85, 85, 213, 52, 77, 211, 52, 129, 208, 144, 149, 0, 0, 25, 0, 0, 195, 180, 228, 210, 114, 207, 141, 160, 72, 42, 71, 181, 214, 146, 81, 229, 36, 197, 28, 26, 138, 160, 130, 86, 115, 13, 21, 52, 136, 73, 139, 33, 98, 10, 33, 38, 49, 150, 14, 58, 166, 156, 212, 26, 83, 41, 25, 115, 84, 115, 108, 33, 84, 136, 73, 13, 58, 166, 82, 41, 6, 45, 8, 66, 67, 86, 8, 0, 161, 25, 0, 14, 199, 1, 36, 203, 2, 36, 75, 3, 0, 0, 0, 0, 0, 0, 0, 73, 211, 0, 205, 243, 0, 203, 243, 0, 0, 0, 0, 0, 0, 0, 64, 210, 52, 192, 242, 52, 64, 243, 60, 0, 0, 0, 0, 0, 0, 0, 0, 0, 0, 0, 0, 0, 0, 0, 0, 0, 0, 0, 0, 0, 0, 0, 0, 0, 0, 0, 0, 0, 0, 0, 0, 0, 0, 0, 0, 0, 0, 0, 0, 0, 0, 0, 0, 0, 0, 0, 0, 0, 0, 0, 0, 0, 0, 0, 0, 0, 0, 0, 0, 0, 0, 0, 0, 0, 0, 0, 0, 36, 77, 3, 52, 207, 3, 52, 207, 3, 0, 0, 0, 0, 0, 0, 0, 205, 243, 0, 79, 20, 1, 79, 20, 1, 0, 0, 0, 0, 0, 0, 192, 242, 60, 192, 19, 61, 192, 19, 69, 0, 0, 0, 0, 0, 0, 0, 0, 0, 0, 0, 0, 0, 0, 0, 0, 0, 0, 0, 0, 0, 0, 0, 0, 0, 0, 0, 0, 0, 0, 0, 0, 0, 0, 0, 0, 0, 0, 0, 0, 0, 0, 0, 0, 0, 0, 0, 0, 0, 0, 0, 0, 0, 0, 0, 0, 0, 0, 0, 0, 0, 0, 0, 0, 0, 0, 0, 0, 28, 77, 3, 52, 207, 3, 52, 207, 3, 0, 0, 0, 0, 0, 0, 0, 203, 243, 0, 79, 20, 1, 207, 19, 1, 0, 0, 0, 0, 0, 0, 64, 243, 60, 192, 19, 69, 192, 19, 69, 0, 0, 0, 0, 0, 0, 0, 0, 0, 0, 0, 0, 0, 0, 0, 0, 0, 0, 0, 0, 0, 0, 0, 0, 0, 0, 0, 0, 0, 0, 0, 0, 0, 0, 0, 0, 0, 0, 0, 0, 0, 0, 0, 0, 0, 0, 0, 0, 0, 0, 0, 0, 0, 0, 0, 0, 0, 0, 0, 0, 0, 0, 0, 0, 0, 0, 0, 0, 0, 0, 0, 0, 0, 0, 0, 0, 0, 0, 0, 0, 0, 0, 0, 0, 0, 0, 0, 0, 0, 0, 0, 0, 0, 0, 0, 0, 0, 0, 0, 0, 0, 0, 0, 0, 0, 0, 0, 0, 0, 0, 0, 0, 0, 0, 0, 0, 0, 0, 0, 0, 0, 0, 0, 0, 0, 0, 0, 0, 0, 0, 0, 0, 0, 0, 0, 0, 0, 0, 0, 0, 0, 0, 0, 0, 0, 0, 0, 0, 0, 0, 0, 0, 0, 0, 0, 0, 0, 0, 0, 0, 0, 0, 0, 0, 0, 0, 0, 0, 0, 0, 0, 0, 0, 0, 0, 0, 0, 0, 0, 0, 0, 0, 0, 0, 0, 0, 0, 0, 0, 0, 0, 0, 0, 0, 0, 0, 0, 0, 0, 0, 0, 0, 0, 0, 0, 0, 0, 0, 0, 0, 0, 0, 0, 0, 0, 0, 0, 0, 0, 0, 0, 0, 0, 0, 0, 0, 0, 0, 0, 0, 0, 0, 0, 0, 0, 0, 0, 0, 0, 0, 0, 0, 0, 0, 0, 0, 0, 0, 0, 0, 0, 0, 0, 0, 0, 0, 0, 0, 0, 0, 0, 0, 0, 0, 0, 0, 0, 0, 0, 0, 0, 0, 0, 0, 0, 0, 0, 0, 0, 0, 0, 0, 0, 0, 0, 0, 0, 0, 0, 0, 0, 0, 0, 0, 0, 0, 0, 0, 0, 0, 0, 0, 0, 0, 0, 0, 0, 0, 0, 0, 0, 0, 0, 0, 0, 0, 0, 0, 0, 0, 0, 0, 0, 0, 0, 0, 0, 0, 0, 0, 0, 0, 0, 0, 0, 0, 0, 0, 0, 0, 0, 0, 0, 0, 0, 0, 0, 0, 0, 0, 0, 0, 0, 0, 0, 0, 0, 0, 0, 0, 0, 0, 0, 0, 0, 0, 0, 0, 0, 0, 0, 0, 0, 0, 0, 0, 0, 0, 0, 0, 0, 0, 0, 0, 0, 0, 0, 0, 0, 0, 0, 0, 0, 0, 0, 0, 0, 0, 0, 0, 0, 0, 0, 0, 0, 0, 0, 0, 0, 0, 0, 0, 0, 0, 0, 0, 0, 0, 0, 0, 0, 0, 0, 0, 0, 0, 0, 0, 0, 0, 0, 0, 0, 0, 0, 0, 0, 0, 0, 0, 0, 0, 0, 0, 0, 0, 0, 0, 0, 0, 0, 0, 0, 0, 0, 0, 0, 0, 0, 0, 0, 0, 0, 0, 0, 0, 0, 0, 0, 0, 0, 0, 0, 0, 0, 0, 0, 0, 0, 0, 0, 0, 0, 0, 0, 0, 0, 0, 0, 0, 0, 0, 0, 0, 0, 0, 0, 0, 0, 0, 0, 0, 0, 0, 0, 0, 0, 0, 0, 0, 0, 0, 0, 0, 0, 0, 0, 0, 0, 0, 0, 0, 0, 0, 0, 0, 0, 0, 0, 0, 0, 0, 0, 0, 0, 0, 0, 0, 0, 0, 0, 0, 0, 0, 0, 0, 0, 0, 0, 0, 0, 0, 0, 0, 0, 0, 0, 0, 0, 0, 0, 0, 0, 0, 0, 0, 0, 0, 0, 0, 0, 0, 0, 0, 0, 0, 0, 0, 0, 0, 0, 0, 0, 0, 0, 0, 0, 0, 0, 0, 0, 0, 0, 0, 0, 0, 0, 0, 0, 0, 0, 0, 0, 0, 0, 0, 0, 0, 0, 0, 0, 0, 0, 0, 0, 1, 0, 0, 1, 14, 0, 0, 1, 22, 66, 161, 33, 43, 2, 128, 56, 1, 0, 135, 36, 65, 146, 32, 73, 208, 52, 128, 100, 89, 208, 52, 104, 26, 76, 19, 32, 89, 22, 52, 13, 154, 6, 211, 4, 0, 0, 0, 0, 0, 0, 0, 0, 0, 64, 242, 52, 104, 26, 52, 13, 162, 8, 144, 52, 15, 154, 6, 77, 131, 40, 2, 0, 0, 0, 0, 0, 0, 0, 0, 0, 32, 105, 26, 52, 13, 154, 6, 81, 4, 72, 154, 6, 77, 131, 166, 65, 20, 1, 0, 0, 0, 0, 0, 0, 0, 0, 0, 208, 76, 19, 162, 8, 81, 132, 105, 2, 60, 211, 132, 40, 66, 20, 97, 154, 0, 0, 0, 0, 0, 0, 0, 0, 0, 0, 0, 0, 0, 0, 0, 0, 0, 0, 0, 0, 0, 0, 128, 0, 0, 128, 1, 7, 0, 128, 0, 19, 202, 64, 161, 33, 43, 2, 128, 56, 1, 0, 135, 162, 88, 22, 0, 0, 56, 146, 99, 89, 0, 0, 224, 56, 146, 101, 1, 0, 128, 101, 89, 162, 8, 0, 0, 150, 165, 137, 34, 0, 0, 0, 0, 0, 0, 0, 0, 0, 0, 0, 0, 0, 0, 0, 0, 0, 0, 0, 0, 0, 0, 0, 0, 0, 0, 0, 0, 0, 0, 0, 0, 0, 0, 0, 0, 0, 0, 0, 0, 0, 0, 0, 0, 0, 0, 0, 0, 0, 0, 0, 0, 0, 0, 0, 0, 0, 0, 0, 0, 0, 0, 0, 0, 128, 0, 0, 128, 1, 7, 0, 128, 0, 19, 202, 64, 161, 33, 43, 1, 128, 40, 0, 0, 135, 162, 88, 22, 112, 28, 203, 2, 142, 99, 89, 64, 146, 44, 11, 96, 89, 0, 205, 3, 104, 26, 64, 20, 1, 128, 0, 0, 128, 2, 7, 0, 128, 0, 27, 52, 37, 22, 7, 40, 52, 100, 37, 0, 16, 5, 0, 224, 80, 20, 203, 210, 52, 81, 228, 56, 150, 165, 105, 162, 200, 145, 44, 75, 211, 68, 145, 101, 105, 154, 231, 153, 38, 52, 205, 243, 76, 17, 162, 231, 121, 166, 9, 207, 243, 60, 211, 132, 105, 138, 162, 170, 2, 81, 52, 77, 1, 0, 0, 5, 14, 0, 0, 1, 54, 104, 74, 44, 14, 80, 104, 200, 74, 0, 32, 36, 0, 192, 225, 56, 150, 229, 121, 162, 232, 121, 162, 104, 154, 170, 202, 113, 44, 203, 243, 68, 81, 20, 77, 83, 85, 85, 149, 227, 104, 150, 231, 137, 162, 40, 154, 166, 170, 170, 42, 203, 210, 52, 207, 19, 69, 81, 52, 77, 85, 85, 93, 104, 154, 231, 137, 162, 40, 154, 166, 170, 186, 46, 60, 207, 243, 68, 81, 20, 77, 83, 85, 93, 23, 158, 231, 121, 162, 40, 138, 166, 169, 170, 174, 11, 81, 20, 69, 211, 52, 77, 85, 85, 85, 215, 5, 162, 104, 154, 166, 169, 170, 170, 234, 186, 64, 20, 69, 211, 52, 85, 85, 85, 93, 23, 136, 162, 40, 154, 166, 170, 170, 174, 235, 2, 211, 52, 77, 85, 85, 85, 215, 149, 93, 128, 105, 170, 170, 170, 186, 174, 235, 2, 84, 85, 85, 93, 215, 117, 101, 25, 160, 170, 170, 234, 186, 174, 43, 203, 0, 215, 117, 93, 215, 149, 101, 89, 6, 224, 186, 174, 235, 202, 178, 44, 0, 0, 224, 192, 1, 0, 32, 192, 8, 58, 201, 168, 178, 8, 27, 77, 184, 240, 0, 20, 26, 178, 34, 0, 136, 2, 0, 0, 140, 97, 74, 49, 165, 12, 99, 18, 66, 10, 161, 97, 76, 66, 72, 33, 100, 82, 82, 42, 41, 165, 10, 66, 42, 37, 149, 82, 65, 72, 165, 164, 82, 50, 74, 45, 165, 150, 82, 5, 33, 149, 146, 74, 169, 32, 164, 82, 82, 41, 5, 0, 128, 29, 56, 0, 128, 29, 88, 8, 133, 134, 172, 4, 0, 242, 0, 0, 8, 99, 148, 98, 140, 49, 231, 36, 66, 74, 49, 230, 156, 115, 18, 33, 165, 24, 115, 206, 57, 169, 20, 99, 206, 57, 231, 156, 148, 146, 49, 231, 156, 115, 78, 74, 233, 152, 115, 206, 57, 39, 165, 100, 204, 57, 231, 156, 147, 82, 58, 231, 156, 115, 206, 73, 41, 165, 116, 206, 57, 231, 164, 148, 82, 66, 232, 28, 116, 82, 74, 41, 157, 115, 14, 66, 1, 0, 64, 5, 14, 0, 0, 1, 54, 138, 108, 78, 48, 18, 84, 104, 200, 74, 0, 32, 21, 0, 192, 224, 56, 150, 165, 105, 158, 39, 138, 166, 105, 73, 146, 166, 121, 158, 231, 137, 166, 170, 106, 146, 164, 105, 158, 39, 138, 166, 169, 170, 60, 207, 243, 68, 81, 20, 77, 83, 85, 121, 158, 231, 137, 162, 40, 154, 166, 170, 114, 93, 81, 20, 69, 211, 52, 77, 85, 37, 203, 162, 104, 138, 166, 169, 170, 170, 11, 211, 52, 77, 211, 84, 85, 215, 133, 105, 154, 166, 105, 170, 170, 235, 194, 182, 85, 85, 85, 93, 215, 117, 97, 219, 170, 170, 170, 174, 235, 202, 192, 117, 93, 215, 117, 101, 25, 200, 174, 235, 186, 174, 44, 11, 0, 0, 79, 112, 0, 0, 42, 176, 97, 117, 132, 147, 162, 177, 192, 66, 67, 86, 2, 0, 25, 0, 0, 132, 49, 8, 41, 132, 16, 82, 200, 32, 164, 16, 66, 72, 41, 133, 144, 0, 0, 128, 1, 7, 0, 128, 0, 19, 202, 64, 161, 33, 43, 1, 128, 84, 0, 0, 128, 16, 107, 173, 181, 214, 90, 107, 13, 99, 214, 90, 107, 173, 181, 214, 18, 231, 172, 181, 214, 90, 107, 173, 181, 214, 90, 107, 173, 181, 214, 90, 107, 173, 181, 214, 90, 107, 173, 181, 214, 90, 107, 173, 181, 214, 90, 107, 173, 181, 214, 90, 107, 173, 181, 214, 90, 107, 173, 181, 214, 90, 107, 173, 181, 214, 90, 107, 173, 181, 214, 90, 107, 173, 181, 214, 90, 107, 173, 181, 214, 90, 107, 173, 181, 214, 90, 107, 173, 181, 214, 90, 107, 173, 181, 214, 90, 107, 173, 181, 214, 90, 107, 173, 181, 86, 0, 32, 118, 133, 3, 192, 78, 132, 13, 171, 35, 156, 20, 141, 5, 22, 26, 178, 18, 0, 8, 7, 0, 0, 140, 65, 136, 49, 232, 36, 148, 82, 74, 133, 16, 99, 208, 73, 72, 165, 181, 24, 43, 132, 24, 131, 80, 74, 74, 173, 181, 152, 60, 231, 28, 132, 82, 90, 106, 45, 198, 228, 57, 231, 32, 164, 212, 90, 140, 49, 38, 215, 66, 72, 41, 165, 150, 98, 139, 177, 184, 22, 66, 42, 41, 181, 214, 98, 172, 201, 24, 149, 82, 106, 45, 182, 24, 107, 237, 197, 168, 148, 74, 75, 49, 198, 24, 107, 48, 198, 230, 212, 90, 140, 49, 214, 90, 139, 49, 58, 183, 18, 75, 140, 49, 198, 90, 132, 17, 198, 197, 22, 99, 172, 181, 215, 34, 140, 17, 178, 197, 210, 90, 173, 181, 6, 99, 140, 177, 185, 181, 216, 106, 205, 185, 24, 35, 140, 174, 45, 181, 86, 107, 205, 5, 0, 152, 60, 56, 0, 64, 37, 216, 56, 195, 74, 210, 89, 225, 104, 112, 161, 33, 43, 1, 128, 220, 0, 0, 2, 33, 165, 24, 99, 204, 57, 231, 156, 115, 14, 66, 8, 169, 82, 140, 57, 231, 28, 132, 16, 66, 8, 161, 148, 82, 82, 165, 24, 115, 206, 57, 8, 33, 132, 80, 66, 41, 165, 164, 140, 49, 230, 28, 132, 16, 66, 8, 165, 148, 82, 74, 105, 41, 101, 204, 57, 8, 33, 132, 80, 74, 41, 165, 148, 210, 82, 235, 156, 115, 16, 66, 8, 165, 148, 82, 74, 41, 37, 165, 212, 57, 231, 32, 132, 80, 74, 41, 165, 148, 82, 74, 74, 45, 132, 16, 66, 40, 161, 148, 82, 74, 41, 165, 148, 148, 82, 74, 33, 132, 80, 74, 41, 165, 148, 82, 74, 41, 169, 165, 148, 66, 8, 165, 148, 82, 74, 41, 165, 148, 82, 82, 74, 41, 133, 16, 66, 41, 165, 148, 82, 74, 41, 165, 164, 148, 90, 43, 165, 148, 82, 74, 41, 165, 148, 82, 74, 73, 45, 181, 148, 82, 40, 165, 148, 82, 74, 41, 165, 148, 146, 90, 74, 41, 165, 82, 74, 41, 165, 148, 82, 74, 41, 37, 165, 212, 82, 74, 165, 148, 82, 74, 41, 165, 148, 82, 74, 75, 169, 165, 148, 74, 41, 165, 148, 82, 74, 41, 165, 148, 148, 82, 74, 41, 165, 84, 74, 41, 165, 148, 82, 74, 41, 41, 165, 212, 90, 74, 41, 165, 148, 74, 41, 165, 148, 82, 90, 107, 41, 165, 150, 82, 42, 165, 148, 82, 74, 41, 165, 180, 212, 90, 107, 45, 181, 148, 74, 41, 165, 148, 82, 74, 105, 173, 181, 148, 82, 74, 41, 149, 82, 74, 41, 165, 148, 82, 0, 0, 208, 129, 3, 0, 64, 128, 17, 149, 22, 98, 167, 25, 87, 30, 129, 35, 10, 25, 38, 160, 66, 67, 86, 2, 0, 100, 0, 0, 12, 163, 148, 82, 73, 45, 69, 130, 34, 165, 24, 164, 150, 66, 37, 21, 115, 80, 82, 138, 40, 115, 14, 82, 172, 169, 66, 206, 32, 230, 36, 149, 138, 49, 132, 148, 131, 84, 50, 7, 149, 82, 204, 65, 10, 33, 101, 76, 41, 6, 173, 149, 24, 58, 198, 152, 163, 152, 106, 42, 161, 99, 12, 0, 0, 0, 65, 0, 0, 129, 144, 9, 4, 10, 160, 192, 64, 6, 0, 28, 32, 36, 72, 1, 0, 133, 5, 134, 14, 17, 34, 64, 140, 2, 3, 227, 226, 210, 6, 0, 32, 8, 145, 25, 34, 17, 177, 24, 36, 38, 84, 3, 69, 197, 116, 0, 176, 184, 192, 144, 15, 0, 25, 26, 27, 105, 23, 23, 208, 101, 128, 11, 186, 184, 235, 64, 8, 65, 8, 66, 16, 139, 3, 40, 32, 1, 7, 39, 220, 240, 196, 27, 158, 112, 131, 19, 116, 138, 74, 29, 8, 0, 0, 0, 0, 128, 3, 0, 60, 0, 0, 36, 27, 64, 68, 68, 52, 115, 28, 29, 30, 31, 32, 33, 34, 35, 36, 37, 38, 39, 40, 2, 0, 0, 0, 0, 224, 6, 0, 31, 0, 0, 73, 10, 16, 17, 17, 205, 28, 71, 135, 199, 7, 72, 136, 200, 8, 73, 137, 201, 9, 74, 0, 0, 32, 128, 0, 0, 0, 0, 0, 8, 32, 0, 1, 1, 1, 0, 0, 0, 0, 128, 0, 0, 0, 0, 1, 1, 79, 103, 103, 83, 0, 0, 0, 53, 0, 0, 0, 0, 0, 0, 74, 225, 57, 5, 2, 0, 0, 0, 40, 17, 18, 91, 30, 60, 54, 232, 255, 6, 255, 47, 255, 52, 51, 49, 59, 60, 250, 255, 42, 255, 66, 255, 46, 255, 55, 255, 60, 255, 61, 255, 79, 255, 83, 148, 102, 83, 189, 205, 127, 118, 179, 128, 110, 105, 54, 213, 219, 252, 103, 55, 11, 232, 158, 162, 15, 215, 206, 109, 63, 1, 0, 187, 213, 27, 118, 69, 44, 134, 131, 9, 16, 68, 34, 2, 5, 65, 16, 8, 199, 206, 23, 234, 64, 24, 13, 77, 30, 65, 24, 13, 17, 49, 1, 188, 150, 13, 49, 253, 207, 21, 236, 124, 45, 27, 124, 230, 159, 43, 216, 249, 3, 172, 180, 0, 160, 72, 128, 94, 32, 52, 66, 13, 67, 130, 184, 136, 198, 4, 98, 132, 40, 148, 5, 59, 124, 205, 241, 141, 51, 8, 172, 40, 82, 68, 4, 54, 0, 154, 107, 102, 238, 146, 46, 15, 116, 88, 32, 177, 107, 22, 238, 154, 46, 15, 116, 88, 32, 249, 81, 156, 161, 90, 20, 73, 25, 101, 22, 68, 221, 154, 58, 101, 16, 146, 144, 111, 145, 69, 157, 170, 4, 64, 59, 177, 101, 190, 201, 87, 180, 102, 162, 75, 30, 15, 0, 0, 0, 0, 0, 0, 164, 134, 214, 154, 53, 102, 148, 220, 186, 40, 110, 87, 65, 173, 21, 49, 198, 10, 168, 130, 49, 70, 68, 1, 68, 76, 67, 176, 59, 136, 69, 212, 0, 1, 84, 65, 76, 211, 180, 195, 138, 137, 98, 25, 132, 17, 38, 42, 100, 72, 203, 0, 132, 161, 3, 48, 0, 160, 192, 196, 104, 19, 72, 94, 18, 69, 161, 49, 6, 176, 32, 12, 98, 68, 28, 24, 11, 203, 0, 216, 77, 140, 8, 6, 60, 0, 253, 101, 104, 44, 104, 3, 19, 113, 16, 72, 64, 97, 21, 34, 4, 27, 131, 66, 48, 16, 196, 146, 239, 77, 14, 53, 84, 178, 128, 24, 10, 0, 132, 17, 66, 28, 134, 132, 88, 8, 66, 174, 11, 0, 198, 24, 136, 28, 89, 222, 235, 234, 1, 0, 106, 32, 21, 136, 114, 239, 46, 221, 233, 84, 87, 151, 153, 30, 134, 150, 152, 13, 226, 85, 172, 216, 127, 199, 236, 177, 99, 103, 2, 222, 108, 158, 251, 17, 229, 176, 53, 40, 19, 52, 155, 231, 126, 68, 112, 216, 154, 148, 17, 28, 2, 0, 120, 21, 212, 41, 17, 4, 226, 130, 13, 102, 159, 231, 228, 227, 235, 240, 205, 217, 17, 0, 0, 0, 0, 0, 128, 2, 0, 44, 214, 100, 171, 70, 5, 107, 192, 130, 130, 144, 58, 212, 29, 77, 11, 8, 182, 172, 216, 72, 102, 107, 53, 4, 43, 166, 21, 67, 117, 194, 208, 220, 95, 33, 53, 90, 157, 212, 234, 64, 170, 90, 64, 190, 229, 152, 180, 90, 84, 197, 20, 3, 1, 16, 76, 11, 27, 76, 49, 128, 1, 67, 140, 152, 129, 16, 96, 188, 84, 120, 98, 18, 211, 129, 177, 49, 33, 24, 4, 219, 54, 89, 69, 1, 1, 4, 112, 28, 133, 161, 45, 176, 108, 0, 5, 177, 173, 40, 8, 100, 1, 69, 116, 79, 52, 70, 16, 5, 1, 35, 36, 34, 118, 24, 35, 226, 0, 21, 2, 161, 168, 8, 195, 197, 2, 47, 100, 32, 8, 162, 36, 105, 248, 194, 72, 168, 81, 196, 20, 0, 228, 225, 204, 130, 16, 17, 19, 108, 1, 0, 96, 57, 66, 20, 162, 182, 36, 160, 239, 190, 6, 32, 250, 178, 66, 0, 0, 136, 6, 6, 201, 0, 32, 155, 24, 132, 22, 68, 162, 6, 0, 136, 6, 17, 2, 155, 72, 212, 2, 128, 136, 162, 161, 2, 0, 128, 16, 176, 99, 88, 34, 98, 140, 35, 175, 172, 104, 152, 2, 2, 30, 44, 30, 221, 26, 33, 15, 77, 233, 64, 176, 120, 116, 107, 132, 185, 52, 141, 58, 82, 238, 201, 76, 152, 62, 240, 21, 0, 96, 9, 130, 11, 24, 215, 2, 46, 11, 108, 251, 214, 239, 179, 191, 4, 176, 181, 0, 0, 0, 0, 0, 0, 106, 90, 45, 34, 54, 172, 162, 49, 17, 139, 10, 141, 170, 86, 169, 196, 181, 24, 134, 13, 7, 168, 0, 0, 81, 1, 12, 34, 163, 82, 65, 84, 21, 19, 19, 20, 164, 114, 180, 140, 82, 52, 151, 10, 19, 165, 100, 77, 81, 122, 70, 44, 65, 208, 160, 160, 130, 42, 54, 211, 80, 16, 5, 80, 64, 41, 34, 145, 185, 86, 171, 85, 37, 82, 1, 17, 181, 48, 237, 176, 182, 150, 28, 226, 32, 170, 98, 98, 154, 118, 218, 97, 33, 128, 160, 160, 180, 138, 10, 168, 197, 24, 216, 225, 146, 109, 1, 80, 1, 7, 193, 112, 235, 33, 19, 86, 84, 0, 0, 71, 177, 180, 182, 208, 81, 42, 96, 133, 145, 53, 198, 145, 189, 137, 1, 80, 1, 69, 209, 49, 169, 161, 35, 183, 136, 160, 128, 160, 109, 131, 138, 141, 130, 40, 168, 137, 10, 49, 162, 138, 172, 104, 32, 132, 96, 17, 18, 179, 87, 16, 88, 200, 24, 10, 58, 207, 198, 16, 67, 12, 0, 1, 0, 236, 16, 68, 45, 180, 64, 4, 16, 176, 17, 83, 80, 66, 0, 192, 16, 35, 52, 138, 105, 4, 0, 152, 152, 17, 131, 99, 34, 128, 80, 134, 192, 198, 180, 16, 172, 170, 5, 0, 0, 168, 216, 22, 16, 5, 0, 0, 17, 107, 19, 83, 80, 11, 75, 0, 25, 136, 29, 1, 97, 0, 0, 64, 81, 3, 9, 0, 214, 26, 166, 250, 12, 122, 161, 148, 5, 90, 195, 76, 31, 29, 113, 161, 81, 89, 224, 15, 0, 0, 0, 240, 206, 204, 218, 106, 37, 34, 0, 88, 216, 47, 64, 110, 123, 207, 225, 219, 231, 198, 245, 4, 244, 91, 11, 0, 0, 0, 0, 0, 64, 83, 10, 82, 2, 21, 0, 120, 99, 5, 117, 173, 26, 131, 168, 81, 20, 193, 65, 85, 236, 106, 85, 69, 84, 20, 85, 85, 85, 192, 52, 196, 48, 81, 211, 130, 130, 34, 32, 113, 137, 155, 89, 110, 215, 255, 80, 197, 123, 155, 62, 138, 240, 240, 163, 49, 78, 144, 96, 49, 35, 67, 163, 192, 165, 53, 245, 210, 186, 252, 43, 254, 34, 170, 170, 96, 61, 88, 17, 17, 81, 0, 17, 1, 205, 38, 139, 130, 160, 80, 134, 160, 56, 34, 121, 182, 198, 58, 38, 21, 16, 104, 16, 24, 194, 104, 52, 226, 0, 25, 23, 64, 43, 182, 7, 43, 86, 114, 20, 34, 134, 8, 218, 142, 173, 26, 149, 103, 70, 128, 130, 10, 192, 49, 20, 134, 32, 9, 158, 17, 0, 109, 59, 55, 24, 38, 101, 170, 171, 118, 121, 237, 80, 225, 194, 54, 32, 199, 8, 218, 151, 49, 170, 60, 209, 234, 35, 179, 22, 11, 4, 0, 22, 182, 5, 171, 170, 40, 38, 170, 170, 8, 182, 12, 177, 42, 2, 128, 101, 155, 152, 14, 8, 109, 27, 1, 128, 131, 152, 49, 177, 36, 5, 0, 0, 107, 68, 69, 24, 0, 0, 98, 198, 32, 13, 100, 54, 4, 49, 98, 226, 48, 134, 13, 32, 0, 75, 172, 193, 176, 130, 8, 128, 0, 216, 160, 98, 24, 42, 42, 24, 2, 67, 140, 152, 6, 133, 70, 0, 0, 142, 32, 136, 5, 0, 180, 166, 153, 50, 225, 207, 198, 9, 252, 85, 52, 27, 199, 254, 217, 56, 1, 127, 46, 64, 225, 14, 0, 173, 128, 27, 147, 151, 158, 6, 58, 133, 112, 84, 114, 164, 168, 60, 85, 65, 96, 65, 233, 230, 65, 74, 68, 133, 8, 231, 0, 196, 150, 217, 122, 202, 95, 163, 75, 194, 87, 178, 84, 79, 249, 107, 244, 73, 240, 108, 93, 69, 17, 73, 11, 12, 0, 77, 157, 35, 142, 104, 115, 81, 202, 0, 136, 218, 218, 34, 3, 237, 79, 247, 166, 111, 170, 127, 179, 29, 172, 114, 77, 187, 180, 127, 57, 247, 222, 207, 110, 165, 78, 246, 47, 251, 222, 231, 7, 72, 125, 4, 0, 61, 50, 97, 26, 88, 45, 194, 187, 196, 26, 57, 186, 161, 224, 69, 48, 175, 171, 9, 222, 184, 118, 97, 56, 200, 8, 135, 209, 48, 20, 182, 177, 180, 68, 81, 0, 196, 162, 101, 62, 249, 207, 104, 212, 104, 61, 155, 124, 242, 159, 209, 232, 254, 3, 44, 126, 4, 0, 237, 5, 184, 32, 104, 163, 168, 24, 169, 6, 17, 59, 20, 14, 43, 18, 90, 97, 31, 137, 137, 37, 197, 148, 31, 189, 98, 7, 150, 36, 133, 138, 58, 96, 76, 38, 40, 8, 90, 43, 54, 62, 197, 216, 15, 90, 237, 72, 133, 106, 197, 218, 151, 72, 243, 65, 179, 29, 89, 232, 89, 77, 165, 90, 68, 165, 44, 64, 38, 0, 192, 27, 101, 157, 144, 101, 157, 130, 20, 104, 177, 177, 207, 188, 141, 193, 227, 14, 129, 55, 219, 0, 0, 0, 0, 0, 0, 96, 100, 84, 177, 174, 215, 46, 182, 137, 65, 164, 150, 1, 96, 192, 25, 130, 32, 88, 140, 209, 110, 53, 72, 65, 227, 22, 65, 76, 139, 163, 152, 171, 6, 82, 111, 17, 69, 103, 209, 68, 197, 72, 171, 52, 26, 40, 232, 152, 0, 16, 177, 50, 114, 132, 33, 0, 58, 38, 21, 5, 16, 138, 236, 149, 3, 107, 195, 130, 37, 128, 34, 112, 216, 49, 178, 0, 0, 89, 19, 42, 32, 98, 0, 99, 3, 136, 65, 182, 237, 173, 160, 5, 5, 128, 165, 142, 137, 56, 12, 100, 25, 0, 72, 57, 196, 34, 138, 144, 101, 202, 3, 145, 229, 22, 71, 193, 40, 91, 11, 76, 132, 140, 8, 77, 90, 0, 164, 226, 123, 39, 201, 249, 104, 25, 64, 82, 96, 16, 8, 3, 197, 66, 243, 92, 5, 44, 184, 17, 128, 190, 43, 105, 217, 183, 243, 250, 217, 50, 4, 195, 101, 7, 2, 144, 76, 204, 32, 144, 109, 34, 182, 37, 203, 96, 197, 180, 3, 0, 135, 8, 216, 251, 151, 135, 10, 103, 30, 26, 119, 0, 94, 60, 94, 252, 20, 43, 46, 52, 118, 29, 41, 197, 227, 197, 207, 177, 226, 34, 54, 119, 93, 33, 153, 67, 0, 0, 55, 68, 128, 100, 130, 203, 244, 128, 11, 61, 216, 247, 61, 207, 217, 207, 217, 117, 23, 0, 0, 0, 0, 0, 128, 140, 154, 0, 128, 105, 243, 86, 139, 154, 134, 105, 72, 76, 13, 21, 80, 195, 193, 177, 128, 225, 48, 87, 160, 212, 179, 170, 136, 8, 9, 0, 0, 161, 166, 54, 117, 5, 9, 65, 212, 14, 219, 99, 181, 157, 97, 85, 172, 10, 32, 138, 116, 69, 76, 13, 240, 82, 165, 129, 52, 8, 53, 138, 205, 73, 74, 19, 88, 15, 128, 42, 144, 253, 168, 220, 136, 220, 94, 31, 0, 80, 1, 48, 83, 59, 108, 9, 13, 0, 98, 74, 129, 97, 41, 153, 178, 99, 97, 53, 43, 0, 0, 160, 172, 19, 89, 13, 35, 211, 96, 12, 98, 136, 56, 0, 86, 20, 27, 76, 59, 44, 237, 86, 114, 57, 64, 176, 172, 206, 144, 12, 75, 97, 12, 22, 12, 178, 160, 166, 19, 70, 29, 51, 49, 200, 0, 0, 142, 170, 37, 150, 131, 130, 82, 1, 96, 98, 218, 142, 209, 6, 81, 0, 43, 20, 80, 196, 142, 135, 116, 194, 16, 0, 0, 64, 161, 137, 217, 9, 113, 2, 0, 0, 134, 141, 160, 18, 87, 196, 0, 96, 2, 7, 138, 54, 97, 128, 8, 5, 32, 0, 98, 117, 68, 104, 66, 66, 3, 6, 80, 68, 161, 28, 154, 80, 12, 16, 192, 20, 131, 108, 129, 60, 71, 12, 129, 204, 148, 5, 49, 84, 212, 2, 81, 1, 16, 69, 237, 22, 80, 85, 65, 129, 97, 211, 0, 190, 59, 78, 242, 8, 122, 160, 77, 33, 165, 119, 92, 197, 30, 215, 131, 220, 164, 20, 147, 242, 225, 140, 69, 70, 0, 1, 153, 229, 76, 33, 129, 111, 0, 0, 160, 29, 244, 55, 211, 3, 176, 156, 1, 123, 235, 7, 192, 6, 206, 64, 216, 247, 125, 159, 251, 182, 181, 0, 0, 0, 0, 0, 0, 218, 108, 199, 117, 49, 86, 17, 109, 205, 170, 254, 182, 164, 48, 106, 69, 91, 7, 200, 10, 40, 74, 80, 44, 166, 170, 97, 113, 104, 32, 128, 96, 175, 156, 27, 84, 85, 131, 8, 162, 0, 37, 178, 233, 40, 14, 86, 173, 133, 128, 66, 41, 25, 17, 17, 89, 24, 105, 28, 197, 52, 173, 53, 32, 40, 0, 66, 44, 204, 230, 122, 188, 49, 65, 84, 16, 21, 2, 234, 5, 177, 154, 193, 148, 80, 149, 158, 190, 2, 188, 82, 120, 76, 151, 22, 129, 32, 71, 84, 215, 117, 243, 243, 242, 71, 97, 24, 160, 33, 0, 91, 198, 65, 82, 47, 0, 59, 192, 181, 108, 212, 68, 227, 59, 17, 142, 202, 16, 25, 105, 0, 56, 0, 206, 194, 215, 133, 133, 213, 196, 52, 1, 0, 0, 193, 194, 210, 196, 138, 85, 107, 36, 128, 104, 0, 44, 44, 109, 91, 216, 182, 101, 162, 0, 136, 42, 160, 150, 54, 166, 170, 165, 97, 41, 0, 0, 160, 166, 109, 11, 75, 108, 169, 21, 1, 0, 0, 84, 109, 33, 166, 42, 42, 0, 128, 168, 80, 12, 2, 20, 51, 136, 6, 0, 0, 128, 45, 19, 85, 11, 11, 21, 83, 0, 0, 176, 98, 87, 171, 166, 170, 13, 86, 13, 5, 0, 64, 108, 44, 145, 32, 6, 6, 0, 0, 176, 83, 196, 16, 16, 3, 85, 0, 128, 48, 18, 145, 3, 133, 54, 2, 0, 64, 17, 0, 150, 0, 222, 27, 110, 122, 13, 126, 161, 20, 34, 118, 193, 77, 46, 65, 47, 52, 43, 164, 188, 149, 181, 65, 18, 8, 65, 15, 188, 100, 128, 122, 42, 73, 210, 40, 128, 27, 9, 32, 83, 99, 2, 46, 22, 108, 75, 18, 92, 48, 224, 119, 70, 0, 191, 37, 36, 230, 22, 0, 0, 0, 0, 0, 0, 236, 48, 157, 44, 210, 173, 170, 128, 233, 118, 187, 55, 75, 101, 58, 154, 41, 149, 22, 139, 170, 209, 216, 4, 27, 141, 40, 70, 148, 120, 115, 220, 21, 20, 200, 136, 1, 138, 168, 205, 208, 56, 1, 2, 170, 136, 1, 166, 170, 49, 74, 83, 35, 106, 102, 59, 138, 138, 24, 180, 128, 23, 35, 56, 160, 157, 10, 193, 140, 20, 32, 119, 193, 117, 180, 145, 96, 41, 0, 0, 0, 34, 166, 97, 216, 77, 17, 0, 76, 53, 213, 2, 96, 0, 0, 106, 197, 98, 85, 4, 171, 134, 136, 96, 98, 88, 136, 153, 170, 45, 60, 22, 24, 149, 67, 71, 4, 0, 182, 123, 201, 97, 216, 41, 64, 170, 86, 206, 153, 51, 103, 227, 41, 42, 166, 106, 181, 132, 151, 70, 100, 63, 34, 195, 42, 165, 26, 12, 76, 251, 108, 2, 107, 75, 181, 49, 20, 152, 0, 192, 212, 65, 65, 20, 111, 17, 195, 78, 253, 15, 224, 49, 149, 141, 21, 43, 34, 106, 161, 0, 128, 0, 0, 112, 76, 17, 195, 71, 2, 230, 165, 5, 88, 3, 0, 2, 168, 130, 29, 150, 162, 154, 61, 162, 0, 10, 0, 0, 176, 98, 40, 136, 34, 192, 0, 0, 182, 182, 138, 41, 86, 197, 66, 85, 68, 1, 0, 98, 42, 180, 67, 97, 0, 184, 26, 166, 2, 0, 62, 11, 214, 104, 79, 136, 135, 220, 170, 20, 150, 133, 107, 193, 142, 88, 83, 60, 196, 102, 165, 184, 44, 252, 113, 122, 20, 50, 66, 66, 64, 150, 1, 81, 173, 10, 111, 64, 212, 102, 0, 244, 33, 190, 157, 65, 208, 111, 123, 63, 183, 109, 223, 183, 22, 0, 0, 0, 0, 0, 160, 118, 114, 189, 209, 194, 149, 222, 69, 197, 218, 144, 239, 50, 198, 154, 122, 93, 213, 170, 136, 168, 213, 38, 104, 131, 172, 166, 216, 20, 139, 67, 164, 14, 168, 107, 1, 64, 66, 36, 66, 98, 148, 168, 196, 28, 99, 34, 25, 149, 99, 1, 150, 97, 123, 176, 76, 0, 13, 17, 16, 0, 48, 178, 88, 90, 42, 22, 100, 86, 235, 166, 21, 22, 228, 106, 98, 134, 130, 140, 44, 48, 200, 0, 16, 6, 142, 58, 162, 104, 56, 184, 7, 64, 52, 55, 24, 154, 74, 206, 197, 200, 31, 163, 37, 69, 4, 0, 25, 147, 228, 76, 0, 192, 193, 22, 211, 218, 237, 245, 88, 69, 21, 0, 0, 32, 32, 172, 109, 70, 170, 100, 86, 85, 17, 0, 0, 133, 196, 128, 104, 16, 88, 29, 243, 16, 146, 73, 16, 148, 33, 147, 137, 37, 0, 64, 142, 25, 58, 92, 157, 96, 111, 46, 0, 0, 0, 20, 195, 198, 70, 5, 116, 16, 3, 0, 0, 130, 8, 32, 49, 109, 76, 68, 0, 81, 80, 171, 0, 6, 192, 34, 102, 204, 80, 81, 91, 170, 106, 74, 158, 2, 0, 0, 216, 216, 182, 180, 84, 53, 109, 44, 172, 13, 65, 0, 64, 13, 219, 22, 128, 165, 141, 93, 65, 77, 44, 172, 96, 42, 166, 53, 34, 136, 40, 128, 168, 77, 20, 33, 203, 70, 2, 0, 0, 64, 81, 131, 41, 0, 158, 27, 246, 116, 79, 249, 101, 196, 22, 174, 32, 76, 129, 52, 23, 28, 241, 146, 240, 67, 211, 32, 21, 146, 189, 31, 101, 77, 32, 65, 70, 16, 57, 27, 16, 179, 167, 136, 11, 90, 224, 95, 204, 102, 2, 224, 132, 100, 122, 103, 104, 7, 47, 162, 168, 169, 137, 0, 184, 7, 0, 218, 52, 50, 128, 223, 122, 194, 192, 222, 243, 219, 2, 0, 0, 0, 0, 0, 0, 133, 132, 102, 69, 12, 70, 165, 151, 181, 197, 113, 69, 181, 245, 189, 145, 110, 146, 108, 246, 147, 105, 74, 237, 34, 170, 226, 229, 197, 150, 81, 4, 85, 239, 5, 85, 60, 226, 236, 108, 168, 26, 166, 205, 90, 151, 44, 222, 192, 164, 94, 119, 84, 163, 84, 86, 65, 53, 5, 147, 20, 0, 176, 98, 117, 52, 16, 1, 106, 217, 48, 107, 0, 128, 10, 163, 52, 96, 52, 52, 2, 88, 23, 170, 211, 104, 56, 168, 138, 1, 0, 166, 20, 105, 4, 36, 185, 202, 23, 67, 77, 67, 212, 18, 48, 15, 40, 74, 1, 150, 137, 210, 128, 176, 65, 0, 185, 84, 24, 64, 24, 189, 23, 0, 0, 40, 0, 104, 60, 207, 38, 115, 166, 66, 109, 91, 97, 207, 50, 0, 0, 0, 145, 249, 254, 248, 182, 211, 138, 161, 86, 140, 193, 84, 4, 21, 19, 90, 0, 64, 12, 177, 49, 77, 131, 48, 98, 21, 0, 0, 0, 0, 64, 232, 6, 212, 114, 172, 228, 43, 136, 0, 212, 160, 2, 0, 0, 121, 22, 163, 37, 128, 46, 123, 145, 13, 0, 0, 32, 89, 173, 100, 75, 45, 49, 48, 27, 1, 60, 160, 98, 99, 219, 64, 44, 5, 12, 53, 193, 20, 16, 5, 0, 201, 148, 165, 131, 17, 29, 28, 2, 0, 0, 23, 139, 1, 254, 26, 150, 104, 141, 104, 23, 161, 129, 35, 112, 199, 134, 37, 218, 19, 237, 66, 3, 71, 236, 253, 10, 0, 208, 16, 228, 244, 84, 64, 153, 98, 167, 13, 156, 1, 121, 134, 89, 62, 34, 43, 101, 77, 2, 0, 4, 130, 74, 245, 0, 128, 218, 162, 204, 66, 223, 24, 128, 173, 203, 88, 88, 2, 131, 235, 208, 67, 163, 77, 176, 181, 0, 0, 0, 0, 0, 0, 20, 0, 144, 68, 192, 105, 61, 74, 64, 218, 22, 173, 42, 71, 67, 138, 8, 138, 55, 81, 21, 212, 64, 16, 72, 13, 35, 163, 18, 2, 96, 149, 84, 44, 98, 38, 151, 100, 253, 242, 41, 90, 0, 0, 0, 124, 11, 161, 90, 50, 52, 3, 0, 4, 161, 97, 36, 69, 211, 102, 138, 69, 28, 69, 0, 200, 38, 0, 162, 134, 162, 128, 1, 0, 0, 32, 170, 134, 1, 0, 88, 28, 93, 177, 11, 8, 106, 26, 22, 181, 90, 16, 176, 27, 136, 48, 121, 84, 175, 179, 69, 194, 216, 104, 8, 73, 164, 206, 146, 236, 71, 140, 101, 12, 17, 141, 140, 236, 218, 216, 38, 207, 82, 197, 151, 131, 78, 108, 15, 29, 2, 18, 132, 5, 46, 98, 180, 55, 192, 210, 18, 186, 182, 253, 130, 216, 1, 0, 0, 224, 0, 59, 53, 179, 5, 168, 5, 144, 132, 57, 194, 140, 225, 14, 128, 4, 128, 64, 84, 219, 170, 93, 108, 153, 106, 69, 5, 64, 54, 96, 17, 202, 14, 98, 22, 0, 128, 136, 93, 44, 173, 134, 161, 152, 203, 139, 48, 0, 0, 0, 152, 198, 131, 109, 44, 172, 69, 5, 43, 2, 64, 248, 68, 3, 40, 38, 0, 0, 0, 24, 10, 0, 0, 96, 213, 26, 34, 32, 75, 50, 0, 0, 0, 40, 6, 194, 24, 0, 254, 251, 29, 229, 30, 247, 67, 171, 77, 100, 28, 111, 239, 183, 201, 35, 174, 135, 146, 155, 72, 15, 16, 19, 133, 232, 99, 2, 72, 162, 4, 149, 58, 100, 28, 2, 0, 104, 152, 49, 83, 0, 224, 9, 144, 144, 81, 235, 5, 40, 179, 78, 134, 224, 214, 239, 3, 64, 255, 238, 5, 0, 250, 196, 251, 11, 12, 93, 194, 192, 181, 1, 52, 66, 162, 209, 38, 56, 3, 182, 5, 0, 0, 0, 0, 0, 192, 9, 51, 41, 38, 98, 55, 84, 227, 162, 118, 155, 49, 209, 10, 88, 35, 103, 105, 115, 27, 80, 42, 128, 81, 79, 239, 34, 148, 88, 68, 5, 64, 69, 50, 42, 106, 93, 71, 80, 0, 212, 180, 143, 181, 61, 168, 53, 49, 41, 74, 242, 134, 82, 84, 21, 0, 240, 230, 160, 224, 179, 41, 243, 78, 150, 218, 188, 0, 0, 110, 42, 10, 0, 90, 161, 246, 89, 39, 85, 140, 6, 5, 65, 21, 12, 98, 22, 212, 14, 128, 119, 136, 98, 234, 44, 54, 19, 188, 131, 183, 36, 42, 18, 76, 23, 0, 0, 124, 213, 236, 100, 35, 22, 5, 208, 154, 211, 141, 165, 17, 1, 0, 204, 52, 163, 160, 138, 42, 90, 95, 208, 82, 70, 200, 66, 219, 102, 49, 181, 105, 144, 111, 161, 10, 129, 136, 244, 83, 188, 212, 10, 173, 146, 246, 166, 49, 176, 25, 131, 12, 238, 134, 54, 6, 240, 254, 94, 201, 182, 73, 1, 0, 8, 84, 209, 178, 98, 99, 1, 72, 54, 80, 29, 145, 159, 141, 97, 87, 107, 81, 64, 0, 123, 97, 2, 3, 138, 216, 178, 109, 87, 91, 149, 69, 1, 80, 69, 45, 146, 108, 98, 72, 17, 1, 0, 0, 0, 0, 172, 166, 99, 50, 2, 162, 145, 152, 8, 0, 128, 152, 17, 0, 0, 0, 192, 93, 99, 232, 13, 0, 0, 0, 244, 123, 109, 160, 1, 22, 251, 173, 122, 46, 7, 115, 160, 85, 218, 195, 121, 246, 219, 244, 92, 12, 230, 64, 171, 180, 135, 243, 115, 113, 134, 218, 106, 102, 25, 25, 17, 42, 89, 0, 0, 28, 128, 40, 43, 73, 136, 212, 64, 0, 128, 35, 192, 186, 176, 17, 220, 22, 0, 180, 150, 32, 137, 101, 218, 208, 152, 128, 173, 123, 9, 172, 70, 8, 32, 183, 64, 215, 22, 0, 0, 0, 0, 0, 32, 111, 26, 33, 58, 142, 163, 70, 109, 41, 0, 85, 64, 85, 85, 181, 181, 50, 221, 234, 208, 68, 20, 0, 160, 34, 138, 32, 134, 136, 225, 80, 236, 6, 40, 168, 105, 179, 154, 146, 218, 48, 12, 19, 195, 106, 41, 6, 6, 130, 162, 197, 138, 42, 197, 104, 83, 1, 173, 236, 166, 170, 33, 10, 130, 29, 85, 171, 77, 50, 6, 98, 58, 216, 21, 68, 68, 80, 7, 177, 154, 166, 96, 170, 168, 168, 0, 32, 34, 128, 80, 141, 98, 81, 83, 33, 27, 210, 58, 89, 119, 21, 85, 76, 171, 169, 138, 77, 108, 54, 139, 128, 224, 43, 76, 226, 43, 169, 180, 24, 49, 212, 152, 205, 214, 39, 227, 152, 168, 17, 72, 133, 69, 221, 38, 35, 212, 192, 176, 49, 56, 160, 171, 61, 72, 214, 155, 247, 232, 65, 18, 149, 34, 34, 108, 129, 204, 101, 176, 108, 34, 43, 34, 141, 136, 136, 184, 160, 216, 105, 41, 26, 0, 152, 152, 98, 2, 132, 66, 192, 68, 32, 64, 146, 13, 65, 32, 137, 136, 162, 128, 137, 169, 150, 118, 17, 211, 170, 17, 115, 58, 38, 16, 114, 32, 131, 17, 192, 199, 48, 133, 192, 18, 37, 73, 92, 141, 119, 177, 176, 139, 41, 128, 169, 160, 170, 244, 65, 192, 94, 48, 179, 209, 128, 28, 190, 149, 96, 168, 90, 170, 32, 24, 136, 29, 214, 175, 175, 60, 94, 135, 3, 0, 0, 97, 84, 146, 140, 1, 79, 103, 103, 83, 0, 0, 255, 103, 0, 0, 0, 0, 0, 0, 74, 225, 57, 5, 3, 0, 0, 0, 140, 194, 203, 127, 30, 66, 59, 255, 7, 255, 40, 255, 86, 255, 78, 51, 57, 65, 63, 255, 58, 255, 76, 255, 100, 255, 99, 255, 74, 255, 108, 255, 105, 255, 88, 220, 114, 137, 94, 235, 191, 198, 190, 234, 182, 75, 236, 86, 255, 53, 206, 157, 175, 54, 179, 154, 104, 115, 19, 0, 6, 99, 178, 219, 165, 154, 200, 138, 25, 42, 12, 228, 0, 135, 113, 104, 69, 34, 141, 108, 66, 71, 163, 81, 180, 200, 146, 36, 211, 210, 38, 51, 88, 49, 108, 108, 108, 91, 85, 211, 4, 212, 126, 19, 55, 249, 111, 198, 206, 219, 175, 239, 38, 255, 205, 216, 113, 106, 15, 139, 211, 8, 0, 38, 246, 228, 70, 177, 7, 67, 138, 58, 232, 18, 101, 143, 74, 86, 36, 170, 48, 144, 162, 242, 179, 175, 8, 33, 100, 9, 2, 133, 196, 36, 8, 109, 9, 22, 42, 8, 250, 186, 133, 168, 71, 136, 63, 40, 59, 68, 208, 214, 45, 32, 122, 132, 248, 67, 40, 187, 66, 68, 208, 15, 245, 167, 11, 81, 169, 70, 33, 50, 34, 67, 81, 167, 12, 148, 138, 12, 23, 76, 18, 107, 128, 153, 59, 124, 147, 143, 59, 226, 158, 179, 35, 0, 0, 0, 0, 0, 0, 190, 174, 173, 209, 56, 54, 37, 213, 40, 142, 35, 226, 116, 131, 53, 193, 148, 168, 21, 16, 49, 45, 102, 204, 226, 96, 83, 80, 195, 208, 170, 158, 22, 81, 1, 21, 4, 212, 66, 141, 33, 171, 40, 246, 166, 165, 49, 40, 148, 170, 132, 12, 166, 1, 84, 129, 162, 1, 16, 42, 70, 24, 88, 150, 177, 204, 230, 136, 229, 197, 178, 28, 180, 157, 134, 48, 102, 216, 166, 141, 129, 178, 132, 9, 66, 197, 12, 3, 11, 192, 34, 85, 129, 251, 49, 43, 152, 246, 29, 13, 32, 148, 3, 239, 88, 141, 144, 67, 69, 5, 70, 132, 162, 193, 22, 17, 219, 194, 194, 16, 97, 57, 106, 151, 192, 194, 72, 56, 106, 194, 9, 103, 182, 15, 193, 10, 38, 68, 6, 64, 0, 116, 128, 8, 108, 43, 183, 69, 109, 11, 88, 62, 192, 1, 56, 100, 36, 153, 80, 10, 108, 32, 130, 145, 236, 192, 0, 40, 98, 139, 64, 50, 146, 45, 9, 162, 129, 0, 71, 32, 34, 7, 150, 145, 137, 73, 40, 100, 133, 33, 38, 12, 154, 153, 81, 21, 210, 103, 150, 137, 3, 126, 188, 109, 105, 14, 49, 50, 116, 152, 8, 121, 143, 185, 53, 46, 17, 241, 49, 116, 154, 8, 121, 15, 132, 56, 99, 153, 136, 51, 102, 242, 22, 36, 162, 158, 8, 64, 50, 17, 95, 130, 96, 235, 251, 125, 139, 119, 120, 115, 219, 3, 0, 0, 0, 0, 0, 0, 214, 26, 233, 130, 176, 101, 16, 240, 213, 131, 171, 198, 216, 30, 45, 22, 176, 136, 161, 149, 171, 166, 96, 113, 144, 6, 17, 67, 64, 193, 64, 5, 51, 139, 98, 215, 108, 172, 90, 209, 177, 96, 97, 137, 201, 96, 203, 88, 4, 211, 64, 96, 89, 100, 175, 166, 136, 2, 42, 42, 148, 162, 168, 133, 197, 24, 134, 168, 138, 225, 101, 130, 6, 58, 66, 45, 76, 48, 213, 46, 139, 152, 66, 150, 3, 2, 11, 140, 131, 72, 36, 12, 45, 0, 80, 3, 17, 84, 237, 176, 16, 235, 124, 84, 156, 104, 0, 112, 52, 98, 199, 173, 77, 201, 133, 160, 22, 166, 129, 1, 150, 150, 104, 69, 246, 138, 10, 152, 162, 34, 64, 118, 83, 67, 84, 12, 0, 81, 0, 192, 180, 49, 76, 53, 76, 163, 139, 10, 140, 128, 32, 230, 46, 68, 33, 1, 2, 167, 192, 82, 195, 54, 130, 73, 190, 3, 32, 6, 144, 99, 19, 134, 34, 68, 114, 135, 255, 187, 215, 192, 108, 19, 70, 195, 145, 130, 140, 132, 33, 97, 212, 18, 128, 13, 160, 24, 49, 66, 66, 136, 129, 133, 1, 0, 170, 34, 118, 81, 136, 4, 1, 81, 1, 128, 162, 194, 194, 90, 193, 20, 27, 65, 12, 81, 172, 10, 106, 96, 135, 1, 96, 26, 170, 44, 226, 82, 142, 0, 62, 252, 157, 253, 30, 41, 46, 106, 115, 236, 72, 25, 254, 206, 126, 143, 244, 131, 218, 154, 167, 66, 98, 30, 59, 6, 80, 150, 53, 66, 104, 149, 193, 91, 144, 168, 214, 13, 0, 76, 196, 47, 166, 7, 219, 109, 37, 96, 13, 219, 29, 1, 16, 11, 123, 163, 92, 176, 239, 75, 76, 90, 23, 144, 206, 9, 88, 0, 0, 0, 0, 0, 0, 168, 77, 108, 113, 187, 218, 45, 226, 168, 6, 90, 196, 219, 178, 77, 19, 118, 201, 179, 86, 137, 98, 197, 35, 138, 72, 82, 68, 84, 5, 211, 57, 38, 34, 134, 163, 173, 174, 38, 138, 216, 179, 3, 94, 69, 139, 137, 42, 134, 131, 105, 49, 76, 0, 64, 13, 114, 228, 231, 73, 50, 44, 90, 188, 6, 39, 240, 201, 19, 53, 0, 0, 92, 83, 139, 59, 90, 220, 209, 193, 200, 53, 67, 1, 53, 189, 107, 56, 88, 213, 244, 26, 0, 76, 1, 48, 29, 13, 85, 176, 216, 68, 1, 0, 80, 3, 69, 12, 17, 53, 13, 171, 131, 21, 155, 137, 168, 33, 144, 180, 98, 97, 4, 163, 87, 155, 168, 169, 162, 38, 34, 128, 24, 138, 24, 168, 90, 193, 38, 91, 34, 134, 0, 160, 98, 90, 152, 152, 22, 98, 103, 76, 162, 216, 86, 96, 144, 194, 5, 138, 52, 144, 144, 121, 61, 153, 178, 177, 143, 118, 188, 103, 97, 180, 108, 130, 38, 4, 0, 81, 43, 106, 218, 194, 180, 174, 214, 72, 90, 21, 33, 92, 50, 108, 155, 209, 32, 176, 141, 132, 21, 96, 16, 80, 76, 107, 44, 236, 16, 67, 68, 68, 21, 81, 16, 81, 91, 168, 85, 5, 21, 0, 16, 5, 177, 11, 134, 133, 133, 13, 138, 138, 160, 150, 22, 136, 136, 93, 172, 98, 9, 134, 105, 5, 192, 210, 90, 173, 88, 53, 1, 0, 20, 64, 209, 72, 12, 9, 133, 66, 6, 0, 64, 172, 65, 4, 7, 0, 214, 234, 21, 114, 173, 136, 7, 13, 150, 17, 180, 122, 153, 217, 43, 254, 160, 193, 50, 193, 31, 0, 0, 0, 224, 149, 66, 82, 206, 168, 78, 6, 52, 110, 11, 232, 247, 126, 219, 183, 248, 222, 89, 66, 38, 219, 222, 2, 0, 0, 0, 0, 0, 208, 34, 69, 10, 0, 52, 18, 145, 2, 166, 171, 26, 19, 184, 77, 86, 35, 6, 211, 204, 142, 34, 2, 146, 130, 168, 40, 128, 98, 21, 139, 205, 16, 3, 195, 200, 200, 84, 248, 109, 110, 73, 77, 199, 123, 89, 40, 91, 245, 174, 88, 181, 99, 252, 62, 152, 119, 87, 33, 225, 79, 193, 189, 183, 9, 180, 26, 21, 67, 204, 193, 62, 131, 82, 194, 238, 17, 218, 59, 32, 38, 50, 24, 194, 48, 170, 154, 220, 246, 196, 12, 165, 100, 66, 143, 40, 34, 136, 104, 166, 3, 70, 15, 25, 138, 168, 9, 160, 13, 106, 170, 90, 171, 53, 137, 32, 162, 130, 42, 160, 54, 18, 15, 67, 5, 118, 45, 3, 138, 73, 164, 230, 122, 229, 101, 54, 172, 74, 149, 138, 0, 0, 40, 118, 27, 153, 173, 56, 80, 13, 68, 106, 197, 177, 20, 131, 108, 244, 220, 80, 84, 1, 136, 142, 37, 25, 235, 53, 118, 146, 86, 190, 0, 0, 224, 34, 137, 88, 107, 38, 19, 8, 193, 96, 55, 166, 145, 99, 58, 176, 177, 109, 40, 32, 182, 218, 24, 22, 106, 141, 138, 40, 0, 40, 8, 118, 168, 96, 1, 10, 168, 171, 42, 138, 161, 182, 13, 5, 4, 128, 13, 54, 49, 213, 188, 72, 145, 127, 68, 176, 139, 165, 9, 134, 136, 2, 40, 8, 8, 166, 137, 165, 97, 45, 86, 81, 16, 18, 145, 36, 73, 10, 176, 195, 70, 45, 109, 44, 17, 53, 81, 83, 77, 65, 21, 236, 180, 16, 44, 77, 3, 3, 0, 64, 34, 136, 88, 216, 10, 0, 252, 142, 65, 25, 243, 215, 226, 0, 252, 47, 25, 150, 49, 127, 45, 44, 224, 169, 215, 103, 198, 0, 0, 137, 42, 182, 4, 187, 136, 28, 65, 4, 129, 9, 148, 68, 210, 161, 100, 50, 168, 24, 143, 122, 18, 90, 114, 52, 240, 115, 91, 164, 134, 189, 248, 224, 255, 208, 34, 101, 108, 88, 206, 135, 252, 15, 77, 82, 254, 0, 43, 241, 0, 240, 78, 192, 145, 249, 18, 185, 172, 26, 168, 82, 116, 21, 98, 197, 53, 180, 142, 62, 81, 233, 93, 64, 248, 234, 98, 47, 15, 109, 255, 43, 140, 134, 33, 96, 212, 142, 21, 189, 165, 191, 153, 151, 206, 146, 57, 127, 180, 127, 179, 46, 187, 3, 204, 97, 4, 0, 21, 112, 157, 121, 241, 212, 102, 39, 35, 16, 181, 173, 134, 69, 71, 2, 25, 194, 168, 131, 32, 16, 107, 43, 112, 52, 102, 148, 96, 71, 77, 16, 51, 26, 13, 69, 104, 167, 109, 59, 77, 83, 21, 252, 138, 129, 218, 230, 191, 102, 191, 183, 246, 138, 145, 58, 228, 191, 102, 126, 111, 61, 181, 131, 141, 97, 1, 192, 80, 235, 132, 88, 76, 139, 134, 234, 195, 40, 106, 77, 195, 84, 107, 197, 120, 217, 54, 173, 9, 35, 114, 16, 126, 248, 69, 36, 8, 21, 85, 12, 199, 32, 136, 68, 141, 0, 122, 202, 133, 184, 116, 43, 255, 16, 202, 173, 8, 82, 187, 148, 150, 142, 249, 131, 70, 183, 97, 248, 3, 0, 0, 0, 124, 9, 0, 112, 209, 74, 136, 119, 221, 71, 207, 199, 199, 199, 235, 247, 189, 3, 0, 0, 0, 0, 0, 64, 11, 217, 144, 0, 130, 102, 212, 10, 0, 144, 1, 189, 20, 140, 120, 127, 192, 89, 64, 69, 193, 162, 209, 223, 91, 140, 217, 93, 189, 138, 163, 70, 234, 162, 138, 162, 183, 54, 76, 26, 38, 233, 64, 95, 201, 104, 61, 77, 67, 105, 33, 129, 64, 106, 133, 144, 66, 239, 108, 208, 124, 249, 21, 47, 247, 159, 237, 186, 13, 236, 134, 182, 97, 57, 70, 140, 180, 229, 88, 44, 90, 64, 3, 11, 65, 44, 65, 132, 114, 180, 98, 80, 21, 136, 237, 49, 204, 124, 24, 242, 204, 3, 76, 16, 21, 83, 0, 212, 36, 123, 85, 244, 206, 73, 83, 88, 24, 182, 71, 91, 8, 10, 130, 42, 8, 168, 133, 105, 24, 106, 147, 103, 26, 129, 10, 192, 96, 28, 129, 48, 20, 161, 44, 2, 199, 88, 145, 29, 85, 111, 71, 3, 162, 2, 33, 20, 73, 212, 6, 170, 80, 3, 97, 26, 230, 94, 141, 136, 224, 0, 44, 192, 130, 156, 125, 230, 58, 20, 49, 216, 72, 6, 66, 245, 249, 137, 215, 36, 0, 34, 148, 80, 36, 64, 0, 203, 6, 83, 190, 156, 29, 67, 128, 44, 43, 138, 136, 17, 98, 40, 128, 138, 40, 54, 38, 96, 105, 152, 6, 170, 98, 128, 141, 90, 3, 86, 237, 180, 64, 108, 68, 69, 81, 212, 90, 84, 13, 44, 48, 45, 13, 11, 48, 20, 81, 171, 106, 167, 161, 134, 105, 130, 66, 36, 18, 2, 0, 150, 21, 24, 189, 221, 5, 190, 11, 174, 108, 74, 103, 36, 117, 21, 151, 18, 236, 130, 27, 157, 210, 253, 49, 186, 118, 253, 84, 18, 230, 163, 136, 90, 165, 76, 36, 68, 228, 108, 212, 204, 204, 16, 33, 188, 2, 80, 153, 150, 82, 222, 244, 19, 192, 208, 104, 129, 51, 236, 134, 123, 19, 192, 192, 190, 247, 163, 231, 219, 27, 45, 176, 181, 0, 0, 0, 0, 0, 0, 120, 130, 237, 70, 12, 150, 6, 148, 85, 59, 205, 159, 34, 106, 187, 90, 77, 222, 138, 233, 48, 201, 6, 229, 129, 105, 216, 230, 27, 205, 128, 170, 160, 40, 98, 20, 212, 20, 141, 122, 70, 60, 14, 86, 171, 209, 104, 51, 65, 15, 147, 21, 16, 64, 164, 72, 90, 107, 24, 207, 27, 190, 193, 33, 219, 172, 170, 160, 174, 34, 138, 168, 235, 6, 66, 252, 37, 97, 208, 30, 5, 15, 216, 80, 85, 195, 110, 23, 21, 3, 176, 176, 28, 5, 246, 102, 128, 142, 204, 91, 152, 32, 104, 58, 146, 36, 34, 165, 50, 118, 104, 27, 66, 112, 196, 13, 161, 32, 36, 137, 196, 211, 117, 203, 185, 173, 89, 87, 78, 212, 1, 173, 70, 50, 178, 32, 97, 183, 102, 100, 50, 52, 19, 0, 128, 68, 8, 162, 152, 182, 12, 205, 57, 10, 0, 40, 192, 221, 37, 17, 75, 147, 76, 214, 136, 137, 160, 10, 24, 100, 20, 177, 21, 33, 176, 99, 129, 176, 12, 24, 69, 76, 12, 66, 7, 33, 6, 3, 0, 106, 35, 74, 102, 195, 68, 2, 128, 137, 175, 90, 183, 10, 21, 117, 0, 8, 16, 197, 208, 108, 9, 162, 182, 81, 49, 69, 0, 64, 173, 152, 170, 217, 88, 1, 133, 49, 131, 48, 6, 14, 44, 12, 32, 134, 2, 22, 106, 145, 29, 75, 11, 133, 152, 145, 208, 97, 0, 200, 0, 68, 3, 129, 20, 10, 100, 160, 169, 15, 190, 219, 237, 102, 15, 92, 74, 110, 159, 75, 38, 201, 244, 118, 39, 179, 71, 229, 165, 228, 118, 185, 68, 51, 146, 242, 73, 245, 22, 89, 136, 68, 64, 68, 212, 148, 167, 202, 0, 156, 129, 237, 63, 216, 4, 2, 144, 69, 165, 66, 163, 94, 130, 237, 157, 85, 18, 128, 192, 238, 176, 237, 241, 237, 94, 0, 22, 46, 64, 251, 0, 128, 80, 39, 104, 212, 202, 129, 51, 76, 159, 195, 11, 0, 0, 0, 0, 0, 0, 48, 182, 30, 42, 214, 168, 160, 2, 106, 77, 182, 114, 66, 73, 20, 67, 50, 193, 70, 169, 85, 201, 181, 104, 208, 116, 196, 117, 106, 208, 212, 120, 220, 218, 115, 22, 68, 81, 48, 192, 162, 170, 32, 38, 250, 141, 17, 218, 161, 152, 21, 83, 112, 131, 168, 170, 243, 165, 101, 85, 223, 43, 20, 6, 171, 169, 40, 233, 202, 66, 142, 182, 248, 44, 98, 34, 162, 142, 38, 86, 64, 80, 0, 0, 21, 177, 170, 56, 216, 13, 195, 2, 0, 0, 128, 98, 7, 0, 0, 171, 42, 198, 130, 163, 216, 44, 8, 34, 106, 177, 10, 2, 32, 42, 134, 163, 13, 171, 105, 58, 34, 170, 216, 196, 196, 196, 0, 0, 28, 108, 247, 14, 168, 239, 231, 8, 109, 36, 19, 25, 91, 244, 173, 36, 68, 69, 69, 172, 100, 49, 50, 91, 32, 121, 97, 191, 28, 45, 144, 197, 16, 238, 9, 68, 132, 28, 154, 67, 140, 209, 166, 17, 179, 9, 193, 56, 8, 52, 14, 55, 192, 205, 49, 108, 229, 235, 8, 171, 35, 20, 4, 69, 181, 77, 17, 84, 213, 14, 177, 211, 12, 24, 0, 66, 135, 32, 35, 98, 199, 40, 203, 12, 251, 84, 12, 5, 83, 65, 20, 16, 196, 14, 171, 170, 22, 22, 86, 160, 179, 122, 228, 192, 8, 144, 85, 75, 108, 137, 152, 42, 10, 0, 0, 54, 22, 118, 81, 49, 172, 218, 194, 0, 17, 141, 132, 8, 0, 128, 128, 192, 81, 0, 0, 128, 171, 2, 158, 187, 109, 116, 79, 19, 143, 145, 171, 150, 140, 132, 67, 237, 182, 192, 61, 77, 92, 118, 87, 93, 201, 20, 156, 94, 38, 39, 166, 164, 128, 196, 87, 0, 128, 23, 84, 34, 131, 76, 232, 79, 48, 201, 221, 30, 0, 49, 193, 13, 104, 37, 224, 98, 65, 223, 117, 63, 3, 226, 98, 193, 82, 27, 203, 19, 0, 181, 36, 11, 0, 0, 0, 0, 0, 0, 201, 151, 214, 193, 129, 40, 198, 102, 0, 64, 86, 74, 147, 103, 162, 53, 70, 140, 55, 170, 152, 42, 2, 134, 41, 42, 14, 72, 85, 19, 195, 42, 180, 253, 134, 96, 8, 152, 34, 64, 84, 107, 106, 172, 69, 199, 149, 169, 128, 138, 40, 138, 138, 228, 200, 209, 42, 134, 243, 36, 30, 130, 128, 128, 42, 96, 72, 21, 19, 139, 163, 97, 15, 1, 95, 16, 0, 64, 85, 85, 213, 180, 1, 134, 181, 216, 204, 70, 171, 138, 161, 128, 58, 36, 91, 108, 53, 49, 76, 117, 80, 0, 48, 170, 136, 146, 141, 26, 35, 42, 22, 86, 236, 180, 217, 115, 187, 105, 35, 134, 189, 140, 155, 218, 2, 26, 143, 64, 120, 170, 93, 213, 20, 176, 86, 61, 68, 49, 69, 24, 169, 57, 129, 219, 188, 60, 71, 33, 10, 88, 90, 36, 118, 45, 13, 2, 239, 32, 82, 194, 150, 7, 195, 194, 202, 152, 237, 180, 98, 105, 74, 146, 167, 32, 10, 198, 46, 193, 74, 225, 50, 163, 76, 68, 84, 45, 36, 207, 86, 107, 46, 166, 87, 143, 77, 96, 66, 3, 3, 183, 91, 142, 18, 76, 97, 151, 156, 12, 32, 128, 34, 98, 23, 83, 76, 203, 124, 227, 219, 23, 13, 48, 150, 99, 178, 70, 17, 64, 20, 17, 0, 64, 204, 49, 76, 171, 86, 16, 25, 34, 129, 136, 161, 16, 0, 0, 16, 1, 64, 212, 46, 134, 157, 22, 166, 109, 212, 180, 129, 6, 0, 128, 168, 216, 43, 9, 0, 176, 24, 147, 41, 162, 166, 168, 26, 10, 192, 9, 222, 187, 173, 122, 138, 229, 135, 174, 199, 209, 86, 174, 64, 47, 183, 152, 37, 70, 124, 168, 61, 150, 182, 153, 2, 111, 81, 147, 17, 64, 4, 76, 192, 147, 84, 84, 166, 10, 32, 203, 216, 247, 101, 108, 31, 52, 98, 6, 179, 17, 16, 91, 59, 207, 96, 88, 2, 137, 182, 15, 0, 0, 0, 0, 0, 0, 52, 90, 87, 123, 108, 81, 212, 6, 21, 212, 162, 77, 9, 221, 216, 26, 143, 166, 4, 140, 20, 162, 179, 239, 109, 50, 6, 73, 131, 119, 52, 28, 51, 54, 69, 21, 128, 6, 17, 204, 36, 123, 8, 54, 59, 42, 41, 10, 100, 76, 68, 80, 215, 226, 16, 25, 0, 0, 166, 90, 76, 7, 139, 61, 158, 164, 34, 134, 197, 57, 81, 212, 180, 128, 85, 109, 129, 194, 104, 208, 47, 3, 41, 170, 134, 157, 217, 86, 75, 181, 176, 98, 69, 76, 69, 4, 192, 80, 205, 137, 165, 213, 209, 10, 168, 34, 168, 137, 33, 110, 99, 167, 137, 216, 213, 14, 3, 1, 170, 5, 197, 213, 69, 65, 70, 103, 123, 132, 153, 73, 83, 43, 123, 9, 58, 9, 107, 201, 72, 216, 6, 80, 26, 85, 232, 110, 36, 12, 6, 66, 20, 100, 24, 205, 136, 108, 131, 226, 17, 89, 194, 44, 155, 25, 100, 177, 101, 1, 24, 130, 2, 34, 70, 208, 46, 217, 64, 136, 112, 52, 116, 36, 160, 162, 221, 152, 77, 212, 137, 57, 136, 132, 116, 36, 66, 19, 196, 233, 160, 64, 20, 40, 18, 149, 112, 11, 14, 76, 167, 3, 0, 72, 0, 72, 54, 10, 104, 130, 90, 102, 29, 107, 0, 12, 187, 138, 165, 90, 98, 53, 195, 210, 82, 213, 50, 179, 137, 40, 160, 54, 150, 6, 86, 4, 20, 20, 68, 109, 44, 77, 68, 140, 104, 196, 88, 70, 6, 0, 0, 192, 139, 12, 0, 254, 187, 157, 221, 24, 196, 136, 181, 193, 212, 246, 225, 240, 203, 157, 221, 24, 196, 136, 181, 73, 215, 246, 147, 112, 248, 100, 84, 203, 76, 9, 82, 202, 72, 170, 69, 68, 6, 225, 75, 0, 128, 7, 97, 1, 36, 168, 6, 23, 48, 14, 1, 0, 60, 2, 128, 84, 27, 89, 85, 128, 3, 128, 84, 171, 110, 25, 17, 11, 232, 159, 69, 0, 254, 36, 202, 84, 39, 138, 0, 206, 24, 198, 5, 38, 162, 49, 172, 4, 127, 32, 178, 182, 160, 154, 65, 134, 37, 12, 186, 0, 0, 0, 0, 0, 0, 48, 209, 122, 28, 154, 68, 11, 32, 106, 108, 11, 106, 151, 86, 179, 130, 21, 132, 10, 128, 96, 152, 86, 139, 169, 234, 104, 83, 16, 209, 8, 22, 131, 170, 81, 155, 180, 20, 53, 179, 186, 42, 1, 23, 211, 65, 41, 1, 0, 223, 142, 99, 161, 170, 124, 133, 137, 9, 21, 69, 212, 86, 222, 245, 169, 9, 226, 109, 209, 65, 69, 202, 155, 50, 170, 128, 87, 65, 133, 224, 160, 234, 164, 105, 218, 77, 7, 171, 130, 10, 0, 128, 65, 213, 42, 210, 3, 2, 166, 161, 2, 14, 22, 187, 77, 13, 71, 71, 187, 29, 0, 0, 67, 45, 166, 105, 23, 155, 96, 87, 7, 139, 181, 81, 76, 21, 67, 13, 197, 186, 183, 85, 99, 76, 195, 160, 128, 160, 96, 152, 169, 26, 216, 197, 46, 52, 82, 26, 27, 11, 31, 214, 32, 208, 168, 97, 212, 161, 45, 173, 32, 26, 226, 13, 44, 204, 44, 246, 6, 1, 116, 78, 81, 85, 213, 193, 20, 83, 12, 171, 22, 217, 132, 233, 104, 117, 197, 73, 222, 114, 114, 128, 12, 145, 66, 132, 166, 32, 136, 154, 130, 16, 53, 22, 36, 45, 21, 103, 44, 2, 11, 25, 246, 102, 100, 86, 215, 194, 88, 6, 3, 142, 17, 69, 70, 198, 78, 171, 134, 141, 165, 10, 0, 32, 0, 40, 176, 0, 144, 98, 206, 1, 0, 170, 0, 96, 140, 182, 64, 65, 13, 171, 99, 17, 0, 0, 0, 126, 171, 221, 245, 56, 31, 178, 139, 174, 85, 106, 233, 68, 33, 157, 171, 221, 205, 56, 27, 178, 131, 218, 44, 181, 62, 65, 200, 126, 178, 172, 45, 34, 32, 101, 8, 73, 168, 41, 201, 128, 47, 1, 0, 126, 0, 0, 2, 64, 156, 224, 133, 4, 72, 245, 228, 65, 89, 91, 111, 109, 13, 0, 248, 7, 213, 154, 162, 90, 2, 177, 176, 49, 26, 2, 128, 84, 231, 120, 212, 102, 6, 0, 142, 1, 53, 178, 146, 37, 224, 24, 2, 34, 235, 68, 212, 22, 138, 244, 6, 16, 42, 133, 50, 178, 157, 224, 1, 152, 154, 140, 106, 0, 2, 72, 35, 172, 128, 52, 232, 163, 65, 0, 0, 0, 0, 0, 0, 196, 231, 148, 208, 66, 212, 171, 233, 138, 88, 245, 122, 247, 182, 187, 111, 40, 100, 1, 0, 64, 51, 1, 90, 162, 130, 208, 196, 61, 75, 197, 40, 162, 42, 30, 186, 85, 113, 220, 214, 174, 95, 8, 100, 132, 134, 136, 98, 77, 31, 203, 237, 82, 82, 138, 155, 81, 81, 49, 45, 22, 187, 58, 138, 205, 46, 160, 170, 32, 162, 162, 42, 24, 49, 70, 84, 16, 139, 85, 192, 98, 141, 136, 69, 68, 21, 192, 90, 16, 107, 172, 21, 85, 17, 49, 0, 0, 88, 140, 17, 99, 12, 195, 193, 234, 32, 0, 0, 0, 136, 41, 2, 128, 130, 169, 6, 69, 141, 181, 162, 214, 136, 32, 130, 205, 193, 106, 170, 105, 49, 76, 187, 1, 128, 128, 226, 96, 24, 166, 213, 230, 104, 184, 35, 152, 249, 189, 155, 143, 56, 119, 128, 134, 196, 241, 42, 129, 84, 194, 38, 18, 4, 97, 104, 33, 16, 177, 168, 184, 166, 138, 224, 70, 43, 34, 233, 3, 92, 17, 67, 52, 52, 39, 137, 169, 10, 42, 98, 145, 37, 155, 33, 140, 188, 140, 219, 10, 212, 19, 2, 129, 192, 50, 2, 135, 70, 129, 123, 136, 91, 190, 140, 131, 32, 176, 1, 152, 37, 66, 132, 10, 205, 34, 12, 156, 13, 40, 6, 6, 0, 0, 0, 190, 171, 29, 229, 30, 196, 133, 78, 101, 35, 20, 194, 187, 218, 209, 237, 177, 92, 232, 86, 118, 18, 33, 252, 150, 117, 138, 132, 76, 65, 16, 109, 248, 18, 0, 224, 43, 0, 192, 19, 0, 20, 53, 233, 16, 0, 192, 1, 228, 169, 172, 137, 34, 1, 255, 0, 161, 78, 81, 4, 13, 145, 0, 98, 102, 174, 199, 64, 89, 43, 72, 64, 151, 144, 173, 72, 79, 0, 68, 77, 77, 68, 241, 0, 76, 181, 44, 163, 160, 0, 9, 210, 65, 221, 178, 204, 32, 0, 105, 16, 224, 42, 0, 0, 0, 0, 0, 128, 58, 51, 25, 76, 182, 209, 137, 219, 218, 228, 38, 169, 140, 68, 163, 29, 139, 81, 136, 145, 0, 100, 5, 0, 64, 73, 0, 24, 172, 10, 42, 198, 26, 49, 81, 83, 0, 64, 213, 104, 13, 189, 174, 50, 18, 192, 0, 221, 107, 97, 219, 213, 93, 163, 189, 129, 193, 160, 106, 40, 116, 117, 197, 237, 6, 81, 21, 107, 84, 1, 0, 27, 88, 164, 72, 106, 69, 1, 0, 48, 150, 174, 24, 0, 0, 0, 64, 44, 86, 68, 213, 34, 96, 140, 160, 88, 17, 80, 107, 84, 197, 10, 0, 32, 152, 88, 77, 17, 176, 93, 238, 152, 133, 134, 197, 198, 43, 138, 148, 161, 65, 34, 17, 108, 200, 200, 150, 67, 98, 45, 11, 84, 60, 4, 9, 44, 236, 40, 177, 129, 42, 132, 58, 148, 65, 171, 136, 137, 88, 172, 149, 144, 64, 29, 45, 91, 178, 37, 80, 6, 38, 98, 161, 100, 236, 219, 127, 176, 145, 14, 99, 36, 219, 175, 127, 143, 218, 2, 66, 33, 144, 68, 132, 208, 81, 50, 210, 204, 49, 80, 57, 109, 21, 108, 2, 25, 17, 206, 34, 189, 35, 133, 171, 125, 14, 64, 152, 0, 91, 181, 203, 40, 27, 16, 6, 196, 0, 8, 193, 24, 225, 96, 25, 43, 40, 5, 136, 70, 66, 0, 0, 128, 22, 0, 0, 79, 103, 103, 83, 0, 0, 0, 152, 0, 0, 0, 0, 0, 0, 74, 225, 57, 5, 4, 0, 0, 0, 172, 93, 130, 215, 24, 255, 67, 255, 68, 255, 81, 255, 99, 255, 100, 255, 99, 255, 112, 255, 113, 255, 120, 255, 111, 255, 111, 255, 115, 254, 171, 221, 197, 18, 204, 133, 166, 80, 54, 14, 33, 252, 171, 221, 197, 18, 204, 133, 166, 80, 54, 14, 33, 244, 154, 30, 240, 37, 0, 192, 87, 0, 128, 99, 1, 160, 182, 166, 142, 131, 162, 82, 239, 169, 0, 8, 248, 3, 65, 221, 74, 17, 9, 196, 194, 196, 224, 31, 128, 144, 234, 214, 89, 28, 35, 42, 81, 155, 1, 128, 63, 129, 172, 91, 148, 69, 194, 11, 0, 117, 100, 145, 13, 107, 11, 25, 2, 0, 210, 65, 77, 32, 51, 1, 105, 208, 6, 6, 0, 0, 0, 0, 0, 80, 107, 2, 14, 85, 48, 176, 34, 142, 170, 118, 100, 13, 0, 0, 84, 0, 131, 136, 53, 138, 88, 99, 172, 43, 222, 87, 82, 69, 197, 138, 73, 22, 84, 172, 85, 140, 53, 86, 212, 210, 21, 80, 84, 141, 44, 78, 85, 14, 118, 27, 24, 66, 83, 68, 109, 242, 89, 37, 138, 26, 99, 85, 140, 85, 69, 1, 0, 172, 40, 88, 84, 16, 0, 64, 17, 181, 70, 141, 177, 106, 172, 21, 85, 81, 0, 16, 53, 170, 162, 24, 193, 0, 0, 10, 138, 131, 169, 106, 130, 41, 150, 102, 110, 48, 109, 221, 192, 112, 195, 80, 195, 144, 170, 234, 81, 123, 98, 83, 161, 234, 133, 148, 46, 173, 48, 22, 209, 32, 52, 81, 181, 59, 0, 133, 252, 34, 176, 224, 145, 66, 142, 148, 82, 74, 181, 68, 45, 65, 208, 36, 103, 221, 134, 113, 116, 3, 159, 147, 39, 65, 45, 4, 11, 163, 205, 83, 101, 161, 62, 234, 245, 117, 142, 253, 71, 59, 22, 14, 64, 78, 88, 1, 84, 229, 208, 14, 33, 84, 103, 172, 99, 215, 82, 17, 21, 3, 17, 21, 236, 228, 173, 250, 49, 0, 216, 178, 1, 0, 0, 0, 0, 0, 0, 136, 70, 21, 0, 190, 139, 29, 229, 17, 196, 129, 14, 142, 80, 224, 238, 102, 71, 125, 4, 113, 161, 147, 16, 14, 220, 87, 70, 93, 25, 200, 16, 248, 18, 0, 160, 203, 144, 201, 19, 0, 162, 168, 55, 203, 67, 0, 0, 252, 17, 0, 64, 3, 0, 0, 248, 7, 128, 80, 79, 101, 113, 140, 168, 173, 100, 145, 0, 248, 19, 136, 186, 89, 42, 225, 13, 32, 212, 83, 32, 1, 55, 96, 195, 2, 164, 35, 67, 109, 65, 38, 64, 26, 44, 248, 11, 0, 0, 0, 0, 0, 32, 234, 77, 80, 140, 68, 85, 53, 146, 145, 13, 0, 168, 168, 215, 212, 140, 155, 22, 175, 130, 96, 172, 32, 42, 170, 168, 245, 235, 117, 5, 0, 0, 89, 0, 0, 80, 19, 16, 178, 32, 42, 22, 197, 208, 192, 24, 177, 214, 138, 40, 86, 0, 16, 212, 90, 53, 2, 86, 1, 0, 16, 43, 138, 32, 226, 160, 0, 0, 0, 0, 96, 49, 0, 64, 69, 28, 172, 118, 139, 218, 4, 0, 0, 171, 70, 212, 138, 88, 43, 70, 1, 0, 64, 177, 86, 22, 5, 67, 205, 12, 108, 12, 219, 35, 84, 196, 32, 18, 75, 151, 180, 154, 194, 167, 238, 91, 99, 7, 6, 210, 83, 186, 114, 32, 133, 138, 25, 132, 1, 129, 85, 14, 62, 63, 238, 14, 94, 173, 32, 110, 69, 9, 101, 69, 129, 56, 22, 144, 98, 34, 249, 59, 150, 130, 145, 69, 212, 23, 138, 55, 15, 60, 80, 21, 85, 145, 66, 16, 247, 95, 215, 147, 18, 169, 66, 172, 198, 20, 137, 0, 23, 66, 40, 44, 80, 168, 181, 80, 164, 64, 197, 65, 171, 11, 10, 139, 100, 21, 25, 140, 60, 211, 96, 48, 214, 128, 93, 237, 213, 80, 84, 85, 65, 116, 144, 115, 252, 13, 145, 110, 86, 0, 0, 0, 0, 94, 107, 61, 76, 141, 145, 15, 93, 167, 212, 214, 81, 8, 185, 216, 235, 170, 107, 172, 124, 244, 181, 51, 164, 182, 142, 98, 200, 93, 59, 75, 240, 21, 0, 224, 75, 0, 0, 254, 24, 0, 160, 129, 0, 0, 13, 145, 89, 111, 165, 172, 38, 192, 31, 0, 212, 214, 86, 202, 160, 1, 0, 0, 235, 23, 0, 0, 248, 19, 68, 17, 181, 17, 1, 199, 0, 32, 212, 147, 165, 108, 32, 0, 0, 178, 144, 89, 9, 18, 64, 10, 0, 0, 0, 0, 0, 0, 18, 70, 183, 188, 199, 18, 137, 12, 77, 162, 77, 80, 3, 151, 199, 207, 0, 0, 80, 10, 0, 0, 26, 169, 102, 4, 0, 136, 65, 214, 208, 171, 53, 140, 160, 40, 10, 130, 66, 32, 9, 0, 0, 53, 137, 10, 0, 128, 138, 53, 98, 4, 107, 81, 5, 0, 192, 170, 197, 136, 20, 0, 128, 160, 86, 140, 49, 86, 64, 129, 82, 203, 225, 84, 216, 61, 70, 88, 74, 94, 62, 249, 185, 168, 50, 237, 44, 55, 104, 233, 233, 34, 118, 85, 32, 146, 177, 197, 212, 60, 99, 96, 180, 144, 103, 40, 106, 96, 75, 199, 163, 210, 0, 131, 97, 161, 85, 69, 74, 100, 192, 196, 8, 28, 134, 49, 20, 90, 21, 8, 0, 5, 33, 61, 162, 167, 244, 55, 12, 29, 110, 151, 131, 72, 168, 16, 43, 8, 64, 214, 174, 56, 86, 164, 206, 208, 229, 8, 129, 140, 2, 118, 68, 225, 72, 222, 198, 93, 203, 144, 105, 107, 254, 66, 6, 11, 128, 8, 66, 4, 72, 9, 66, 72, 180, 150, 116, 38, 118, 24, 86, 5, 20, 7, 1, 144, 141, 84, 128, 44, 17, 186, 240, 83, 216, 54, 52, 212, 33, 36, 2, 33, 21, 72, 17, 72, 50, 0, 0, 1, 0, 16, 196, 48, 21, 170, 208, 40, 2, 0, 0, 224, 0, 20, 196, 150, 181, 42, 8, 126, 106, 221, 93, 41, 179, 116, 184, 150, 150, 144, 222, 97, 45, 2, 135, 236, 233, 117, 55, 165, 180, 233, 41, 215, 213, 22, 202, 187, 89, 139, 192, 10, 239, 140, 122, 74, 1, 145, 25, 18, 109, 248, 18, 0, 224, 43, 0, 192, 151, 0, 0, 207, 0, 4, 212, 42, 0, 208, 0, 0, 128, 6, 2, 0, 32, 61, 0, 192, 49, 42, 106, 0, 128, 99, 2, 0, 28, 19, 0, 224, 9, 64, 100, 61, 45, 233, 13, 0, 168, 89, 0, 210, 65, 157, 106, 2, 64, 26, 36, 0, 0, 0, 0, 0, 0, 160, 122, 36, 230, 96, 197, 56, 109, 195, 115, 213, 108, 15, 226, 191, 147, 220, 105, 87, 247, 62, 160, 69, 54, 1, 0, 68, 173, 1, 0, 32, 91, 193, 32, 162, 98, 169, 164, 201, 104, 180, 88, 167, 15, 0, 160, 153, 145, 0, 0, 85, 4, 0, 64, 106, 88, 33, 130, 34, 168, 8, 128, 70, 0, 0, 80, 2, 0, 0, 128, 250, 217, 84, 59, 0, 86, 0, 0, 107, 45, 86, 43, 86, 71, 81, 0, 0, 69, 84, 44, 106, 140, 2, 0, 40, 32, 222, 46, 22, 36, 174, 34, 18, 253, 180, 158, 141, 188, 162, 25, 151, 45, 72, 45, 17, 83, 68, 9, 28, 187, 9, 218, 168, 140, 0, 90, 68, 226, 171, 183, 191, 85, 178, 30, 82, 72, 80, 149, 198, 48, 177, 192, 210, 70, 29, 1, 160, 168, 18, 17, 43, 227, 253, 78, 141, 216, 150, 13, 38, 18, 134, 200, 237, 189, 185, 208, 237, 20, 31, 182, 148, 2, 225, 72, 161, 84, 40, 149, 4, 173, 105, 10, 16, 222, 178, 141, 11, 119, 172, 112, 43, 72, 64, 38, 0, 97, 32, 116, 23, 1, 0, 170, 82, 145, 191, 3, 189, 13, 37, 174, 54, 218, 0, 164, 16, 72, 1, 120, 55, 179, 76, 48, 74, 106, 165, 16, 88, 196, 76, 128, 68, 72, 0, 1, 113, 210, 138, 134, 70, 166, 138, 20, 136, 152, 6, 0, 0, 0, 94, 122, 221, 91, 155, 70, 59, 165, 95, 181, 137, 123, 127, 142, 16, 20, 162, 165, 216, 189, 181, 102, 76, 199, 248, 173, 54, 5, 119, 125, 246, 2, 115, 8, 63, 218, 231, 0, 184, 216, 159, 112, 48, 224, 43, 20, 0, 95, 1, 0, 190, 4, 0, 56, 10, 88, 0, 128, 6, 2, 0, 112, 5, 0, 0, 233, 1, 0, 186, 28, 128, 99, 224, 244, 106, 61, 89, 1, 192, 159, 64, 214, 169, 147, 69, 194, 11, 0, 245, 244, 40, 178, 129, 0, 0, 200, 34, 179, 110, 81, 141, 12, 0, 105, 208, 3, 0, 0, 0, 0, 0, 0, 136, 83, 13, 95, 22, 187, 68, 106, 97, 96, 227, 144, 127, 30, 149, 218, 233, 251, 36, 23, 4, 33, 181, 36, 1, 0, 178, 54, 2, 0, 64, 35, 177, 26, 0, 162, 84, 214, 206, 40, 43, 246, 210, 78, 237, 37, 0, 64, 45, 145, 0, 0, 185, 52, 19, 0, 128, 138, 58, 84, 128, 0, 10, 64, 119, 110, 171, 168, 168, 162, 40, 0, 98, 190, 107, 130, 99, 44, 10, 0, 0, 177, 153, 193, 30, 169, 0, 0, 4, 65, 69, 140, 26, 0, 0, 64, 213, 81, 177, 42, 38, 142, 72, 216, 151, 247, 246, 74, 18, 28, 129, 167, 130, 160, 110, 138, 218, 53, 81, 53, 0, 36, 146, 81, 130, 104, 130, 139, 6, 214, 163, 19, 14, 136, 34, 42, 26, 152, 246, 187, 163, 197, 20, 41, 64, 8, 9, 110, 157, 175, 121, 146, 155, 206, 64, 14, 176, 140, 165, 4, 71, 130, 185, 179, 126, 181, 5, 91, 40, 72, 0, 73, 236, 186, 44, 44, 99, 131, 9, 133, 64, 155, 208, 159, 197, 203, 35, 170, 82, 0, 36, 100, 186, 36, 33, 0, 4, 210, 164, 152, 167, 175, 212, 212, 34, 195, 170, 150, 32, 64, 34, 36, 18, 100, 164, 33, 161, 224, 28, 240, 172, 77, 211, 49, 80, 0, 0, 0, 0, 100, 3, 128, 99, 162, 81, 44, 75, 83, 157, 4, 0, 0, 56, 190, 121, 93, 157, 43, 7, 123, 248, 213, 181, 72, 239, 189, 12, 161, 33, 186, 137, 157, 163, 175, 131, 188, 202, 239, 181, 45, 164, 247, 22, 13, 193, 129, 251, 174, 230, 140, 39, 50, 16, 105, 207, 119, 27, 13, 124, 9, 0, 240, 13, 0, 0, 36, 254, 24, 0, 224, 16, 5, 0, 13, 4, 0, 224, 143, 0, 0, 144, 30, 0, 224, 24, 69, 21, 0, 56, 38, 0, 0, 127, 2, 213, 186, 53, 50, 224, 9, 0, 245, 156, 84, 121, 0, 182, 90, 135, 0, 0, 210, 161, 172, 47, 73, 0, 57, 12, 0, 0, 0, 0, 0, 0, 192, 182, 24, 247, 156, 45, 217, 233, 247, 222, 57, 68, 178, 90, 202, 114, 94, 181, 166, 205, 184, 160, 85, 75, 0, 0, 52, 218, 0, 25, 161, 194, 52, 140, 90, 62, 127, 117, 140, 1, 128, 208, 8, 209, 214, 242, 239, 0, 0, 200, 70, 36, 0, 64, 137, 20, 0, 128, 172, 252, 177, 86, 0, 16, 15, 64, 1, 0, 0, 190, 135, 56, 24, 65, 0, 0, 0, 68, 29, 55, 250, 4, 128, 161, 0, 160, 70, 146, 21, 197, 3, 0, 0, 138, 196, 103, 2, 56, 0, 0, 8, 8, 166, 171, 22, 84, 65, 203, 67, 99, 45, 217, 75, 35, 3, 192, 58, 46, 147, 236, 119, 33, 116, 44, 2, 152, 0, 137, 12, 162, 149, 70, 76, 121, 116, 104, 76, 232, 56, 132, 18, 20, 132, 20, 170, 229, 58, 106, 24, 170, 48, 4, 111, 27, 17, 21, 49, 84, 244, 222, 157, 101, 252, 222, 88, 219, 187, 245, 135, 203, 106, 7, 132, 138, 144, 72, 36, 247, 95, 33, 99, 0, 65, 8, 161, 71, 130, 129, 150, 82, 211, 127, 165, 27, 64, 228, 133, 49, 131, 0, 41, 162, 17, 159, 59, 78, 106, 212, 110, 7, 16, 134, 123, 0, 33, 1, 36, 50, 193, 70, 115, 180, 52, 2, 18, 77, 126, 143, 146, 161, 198, 64, 11, 18, 4, 68, 85, 0, 0, 0, 64, 0, 254, 56, 157, 105, 41, 242, 252, 74, 191, 45, 109, 53, 189, 63, 27, 33, 72, 242, 113, 186, 210, 152, 97, 184, 202, 111, 93, 83, 77, 239, 127, 43, 4, 73, 190, 107, 203, 122, 10, 176, 210, 124, 31, 58, 106, 248, 18, 0, 224, 27, 0, 0, 92, 124, 17, 0, 224, 16, 0, 64, 3, 0, 0, 248, 35, 0, 0, 174, 0, 0, 44, 142, 49, 0, 192, 49, 1, 0, 222, 0, 98, 156, 118, 94, 148, 69, 2, 14, 234, 41, 10, 9, 0, 100, 65, 109, 134, 0, 32, 135, 126, 0, 0, 0, 0, 0, 0, 0, 198, 185, 47, 212, 199, 16, 38, 123, 31, 215, 106, 26, 81, 162, 177, 184, 178, 155, 223, 170, 75, 1, 217, 114, 6, 0, 64, 156, 168, 128, 72, 74, 135, 5, 45, 189, 254, 188, 160, 0, 144, 37, 148, 122, 73, 0, 0, 117, 201, 72, 0, 128, 104, 37, 1, 0, 26, 73, 45, 0, 0, 68, 149, 0, 0, 16, 180, 186, 186, 58, 237, 56, 7, 0, 0, 0, 94, 207, 98, 172, 20, 0, 0, 168, 109, 218, 80, 107, 21, 0, 0, 192, 1, 236, 98, 34, 168, 86, 250, 58, 57, 227, 45, 94, 8, 112, 132, 144, 176, 151, 158, 151, 177, 99, 85, 83, 139, 96, 128, 112, 68, 37, 118, 232, 226, 237, 22, 225, 63, 138, 8, 0, 213, 86, 0, 112, 37, 109, 55, 222, 24, 108, 137, 198, 14, 189, 8, 211, 48, 242, 69, 113, 236, 207, 228, 231, 146, 244, 186, 246, 89, 126, 97, 201, 212, 80, 137, 117, 129, 0, 33, 3, 203, 8, 208, 216, 48, 18, 161, 245, 107, 22, 159, 41, 126, 93, 107, 21, 64, 34, 39, 4, 8, 16, 128, 18, 95, 183, 186, 106, 22, 78, 44, 200, 180, 6, 36, 128, 16, 18, 176, 165, 244, 239, 79, 56, 248, 209, 178, 74, 3, 0, 0, 31, 112, 218, 130, 29, 167, 10, 204, 12, 85, 0, 2, 80, 64, 2, 34, 81, 162, 190, 29, 223, 86, 147, 13, 29, 1, 0, 136, 0, 160, 86, 236, 10, 28, 60, 0, 254, 200, 92, 169, 139, 181, 35, 107, 109, 50, 93, 205, 78, 72, 120, 177, 57, 49, 23, 210, 199, 163, 111, 73, 211, 93, 234, 141, 171, 240, 107, 178, 152, 154, 12, 192, 92, 198, 87, 0, 128, 175, 0, 0, 95, 4, 0, 56, 4, 0, 208, 64, 0, 128, 6, 0, 0, 240, 15, 0, 57, 243, 230, 119, 199, 112, 211, 20, 0, 112, 76, 0, 0, 254, 4, 138, 242, 140, 69, 70, 226, 5, 128, 169, 103, 35, 226, 1, 152, 154, 106, 72, 0, 32, 141, 49, 64, 14, 18, 12, 0, 0, 0, 0, 0, 112, 57, 110, 119, 15, 229, 223, 159, 167, 57, 23, 74, 169, 1, 0, 160, 191, 20, 0, 0, 77, 154, 99, 55, 0, 0, 52, 91, 0, 0, 112, 78, 84, 0, 160, 226, 17, 177, 217, 105, 39, 171, 21, 69, 16, 80, 0, 118, 37, 1, 0, 133, 208, 86, 161, 6, 1, 0, 192, 203, 252, 214, 143, 29, 32, 168, 128, 8, 66, 21, 90, 203, 90, 6, 0, 0, 48, 157, 231, 119, 205, 174, 86, 86, 83, 0, 64, 17, 80, 195, 102, 88, 85, 133, 196, 180, 175, 131, 76, 239, 228, 141, 197, 13, 141, 68, 187, 16, 161, 167, 165, 14, 36, 239, 86, 211, 129, 77, 164, 201, 1, 235, 103, 167, 62, 186, 40, 82, 229, 250, 188, 224, 96, 111, 165, 230, 27, 225, 53, 205, 221, 113, 81, 162, 200, 201, 68, 231, 6, 51, 231, 63, 62, 244, 164, 0, 33, 112, 107, 180, 8, 33, 162, 15, 207, 242, 197, 234, 49, 132, 24, 108, 59, 12, 16, 24, 144, 34, 167, 223, 252, 191, 253, 246, 42, 227, 147, 158, 157, 122, 133, 212, 137, 116, 198, 145, 32, 132, 32, 172, 180, 128, 251, 115, 15, 131, 74, 92, 93, 114, 132, 99, 183, 139, 117, 170, 2, 0, 128, 3, 64, 161, 76, 121, 0, 8, 233, 18, 159, 201, 165, 126, 146, 85, 33, 29, 27, 1, 32, 34, 96, 0, 86, 36, 233, 11, 103, 91, 197, 18, 42, 33, 66, 34, 199, 16, 0, 0, 0, 128, 2, 1, 0, 158, 120, 156, 89, 140, 181, 35, 87, 110, 178, 188, 27, 169, 164, 226, 225, 113, 102, 62, 153, 253, 88, 107, 67, 94, 222, 21, 107, 9, 202, 10, 239, 106, 81, 155, 25, 134, 213, 173, 84, 226, 134, 175, 0, 0, 47, 140, 249, 188, 87, 95, 92, 158, 38, 192, 31, 3, 0, 28, 5, 44, 0, 64, 3, 0, 0, 184, 2, 0, 208, 0, 0, 128, 83, 6, 112, 140, 1, 0, 248, 19, 80, 207, 234, 1, 142, 3, 144, 119, 191, 117, 123, 20, 7, 207, 21, 2, 0, 92, 204, 0, 122, 0, 0, 0, 0, 0, 0, 216, 151, 157, 47, 189, 55, 67, 39, 197, 109, 196, 154, 58, 87, 9, 226, 31, 246, 166, 93, 67, 13, 208, 190, 102, 2, 240, 21, 218, 222, 125, 72, 54, 88, 155, 163, 0, 64, 54, 147, 170, 136, 122, 65, 173, 212, 48, 197, 73, 237, 44, 153, 0, 0, 22, 158, 2, 0, 192, 153, 37, 0, 0, 104, 152, 115, 246, 160, 69, 74, 193, 0, 128, 40, 36, 128, 242, 160, 36, 147, 229, 135, 160, 0, 96, 1, 141, 131, 115, 220, 116, 165, 147, 173, 21, 0, 0, 128, 112, 54, 190, 189, 36, 144, 36, 0, 4, 214, 133, 206, 223, 203, 58, 57, 91, 74, 8, 35, 243, 97, 182, 229, 103, 190, 200, 61, 102, 238, 64, 175, 115, 24, 162, 209, 106, 137, 170, 146, 165, 192, 195, 141, 148, 2, 1, 178, 230, 157, 156, 196, 145, 112, 164, 13, 2, 45, 180, 254, 17, 204, 253, 141, 197, 6, 33, 33, 180, 195, 16, 19, 2, 41, 3, 18, 130, 2, 29, 126, 48, 48, 191, 203, 214, 182, 45, 17, 50, 228, 145, 8, 176, 150, 128, 45, 237, 174, 205, 215, 248, 189, 238, 198, 22, 80, 113, 41, 2, 136, 51, 1, 192, 6, 41, 37, 2, 165, 207, 176, 123, 32, 36, 122, 87, 3, 24, 165, 24, 101, 229, 114, 237, 180, 197, 160, 218, 8, 137, 16, 10, 196, 2, 0, 0, 0, 128, 197, 219, 129, 138, 40, 146, 179, 27, 0, 24, 0, 132, 0, 0, 212, 176, 19, 139, 44, 154, 26, 0, 158, 72, 92, 69, 140, 77, 63, 150, 218, 84, 151, 119, 120, 38, 164, 74, 133, 196, 153, 150, 164, 225, 67, 109, 50, 189, 151, 11, 6, 184, 179, 129, 132, 147, 131, 175, 0, 0, 95, 1, 0, 190, 8, 0, 112, 8, 0, 160, 1, 0, 0, 252, 17, 0, 0, 221, 0, 16, 69, 157, 234, 169, 7, 56, 86, 83, 61, 53, 187, 19, 0, 127, 2, 119, 167, 197, 78, 240, 4, 96, 123, 248, 120, 182, 159, 55, 156, 97, 34, 4, 0, 144, 76, 241, 23, 0, 0, 0, 0, 0, 32, 54, 107, 117, 88, 95, 53, 238, 52, 246, 127, 224, 95, 115, 54, 212, 204, 110, 146, 111, 104, 138, 31, 143, 131, 120, 2, 198, 227, 70, 2, 0, 136, 10, 0, 64, 201, 116, 121, 44, 2, 0, 192, 92, 58, 0, 0, 120, 147, 160, 217, 235, 65, 36, 38, 159, 194, 177, 127, 208, 48, 92, 245, 30, 2, 0, 248, 110, 115, 79, 33, 170, 138, 1, 96, 145, 69, 181, 159, 164, 120, 21, 0, 0, 136, 66, 146, 112, 183, 39, 168, 122, 0, 17, 160, 220, 204, 120, 203, 165, 254, 114, 182, 176, 14, 100, 196, 150, 243, 117, 93, 148, 15, 76, 111, 83, 228, 68, 110, 148, 10, 20, 190, 17, 169, 71, 88, 173, 145, 76, 168, 72, 162, 110, 168, 40, 130, 72, 156, 190, 153, 6, 46, 213, 113, 164, 16, 56, 40, 149, 237, 223, 123, 231, 243, 27, 14, 22, 116, 32, 98, 169, 119, 23, 173, 100, 136, 97, 21, 11, 169, 58, 215, 167, 84, 123, 121, 241, 101, 157, 14, 56, 8, 160, 39, 46, 2, 25, 177, 180, 105, 64, 216, 25, 235, 164, 131, 250, 246, 157, 73, 7, 0, 3, 112, 207, 34, 145, 66, 136, 208, 122, 209, 161, 107, 236, 107, 110, 203, 109, 77, 12, 187, 219, 66, 16, 169, 34, 91, 182, 240, 0, 0, 55, 22, 0, 0, 0, 0, 32, 58, 0, 160, 16, 212, 198, 187, 91, 76, 226, 132, 0, 192, 26, 0, 144, 246, 224, 189, 189, 197, 44, 0, 0, 0, 0, 222, 24, 188, 25, 153, 148, 253, 161, 111, 118, 123, 55, 110, 18, 6, 248, 251, 205, 212, 39, 75, 31, 150, 230, 188, 188, 90, 21, 96, 66, 47, 113, 8, 124, 9, 0, 240, 4, 23, 172, 111, 223, 62, 25, 136, 47, 2, 0, 28, 2, 0, 104, 32, 0, 0, 255, 0, 254, 223, 239, 223, 106, 7, 13, 4, 0, 232, 114, 11, 192, 159, 212, 105, 183, 71, 2, 224, 79, 96, 255, 48, 91, 32, 57, 6, 0, 198, 169, 143, 47, 247, 120, 0, 118, 66, 139, 4, 0, 41, 10, 3, 0, 0, 0, 0, 0, 16, 207, 129, 94, 218, 84, 182, 201, 54, 41, 38, 88, 246, 253, 165, 0, 0, 164, 163, 107, 39, 125, 161, 234, 3, 64, 255, 101, 200, 143, 75, 38, 0, 128, 121, 63, 1, 52, 75, 84, 94, 62, 71, 84, 147, 5, 0, 184, 198, 194, 102, 231, 10, 0, 4, 128, 216, 156, 177, 151, 23, 0, 5, 0, 42, 126, 235, 96, 130, 54, 0, 0, 160, 210, 215, 49, 59, 128, 247, 205, 10, 0, 184, 139, 77, 191, 87, 227, 1, 36, 1, 143, 219, 251, 43, 127, 186, 24, 153, 26, 243, 41, 219, 109, 229, 181, 166, 209, 76, 247, 79, 158, 176, 211, 109, 170, 196, 198, 186, 177, 105, 32, 104, 21, 102, 244, 87, 31, 124, 171, 253, 185, 190, 156, 173, 34, 253, 192, 120, 231, 200, 205, 235, 175, 114, 34, 49, 81, 39, 26, 209, 226, 182, 243, 138, 191, 68, 30, 84, 109, 83, 85, 37, 213, 82, 254, 42, 155, 145, 227, 160, 37, 157, 45, 215, 235, 143, 81, 85, 198, 125, 74, 159, 118, 165, 91, 32, 37, 72, 71, 70, 86, 89, 106, 75, 54, 80, 22, 50, 206, 107, 173, 215, 39, 147, 252, 246, 205, 137, 181, 1, 88, 101, 65, 230, 36, 54, 114, 207, 211, 85, 107, 108, 56, 32, 157, 9, 130, 24, 27, 108, 28, 65, 238, 242, 249, 50, 84, 90, 53, 2, 160, 100, 206, 182, 181, 233, 166, 17, 0, 192, 4, 0, 160, 152, 129, 34, 0, 62, 0, 190, 216, 59, 141, 9, 246, 15, 154, 148, 157, 32, 194, 255, 245, 102, 169, 147, 241, 143, 216, 183, 170, 225, 171, 242, 34, 8, 249, 87, 214, 29, 144, 233, 75, 0, 128, 175, 0, 0, 79, 4, 192, 248, 195, 225, 57, 205, 33, 0, 128, 134, 66, 54, 103, 252, 253, 163, 0, 52, 0, 0, 160, 129, 0, 0, 11, 254, 20, 211, 167, 141, 6, 128, 46, 225, 219, 111, 112, 28, 128, 249, 169, 15, 163, 103, 99, 15, 128, 52, 2, 32, 197, 85, 0, 0, 0, 0, 0, 128, 183, 119, 78, 188, 254, 89, 215, 94, 58, 57, 77, 223, 239, 141, 21, 246, 195, 223, 124, 11, 0, 192, 237, 82, 64, 141, 13, 146, 81, 194, 212, 243, 134, 63, 30, 222, 17, 0, 32, 169, 170, 47, 183, 220, 149, 181, 114, 152, 0, 230, 235, 1, 0, 160, 164, 218, 183, 94, 203, 2, 0, 0, 144, 39, 51, 147, 191, 211, 186, 143, 180, 0, 0, 128, 221, 99, 197, 208, 172, 187, 196, 102, 235, 30, 0, 0, 8, 6, 206, 170, 38, 0, 0, 105, 74, 134, 213, 117, 189, 89, 102, 94, 154, 185, 180, 55, 165, 240, 199, 69, 234, 222, 223, 143, 250, 216, 213, 108, 15, 162, 82, 132, 212, 109, 23, 222, 131, 184, 53, 68, 211, 4, 161, 115, 102, 52, 61, 223, 41, 154, 221, 86, 35, 10, 225, 176, 205, 219, 66, 190, 24, 218, 151, 239, 167, 223, 86, 83, 201, 139, 197, 84, 255, 156, 193, 82, 56, 231, 63, 141, 170, 25, 243, 37, 143, 118, 106, 251, 208, 137, 183, 243, 206, 63, 54, 218, 49, 132, 40, 2, 73, 233, 118, 137, 235, 15, 130, 160, 167, 112, 229, 149, 9, 99, 86, 122, 146, 212, 208, 177, 3, 236, 76, 95, 135, 93, 253, 36, 243, 86, 115, 211, 225, 154, 187, 110, 81, 80, 11, 0, 2, 15, 68, 144, 14, 194, 192, 103, 252, 208, 196, 163, 44, 179, 132, 3, 93, 8, 192, 1, 143, 0, 0, 0, 0, 160, 77, 1, 0, 138, 1, 0, 96, 100, 91, 44, 19, 224, 48, 0, 0, 79, 103, 103, 83, 0, 0, 0, 180, 0, 0, 0, 0, 0, 0, 74, 225, 57, 5, 5, 0, 0, 0, 27, 23, 80, 55, 14, 255, 116, 255, 114, 255, 121, 255, 115, 255, 108, 255, 99, 255, 102, 222, 216, 187, 38, 31, 107, 126, 200, 13, 150, 107, 217, 19, 138, 216, 192, 223, 228, 74, 18, 63, 150, 190, 236, 82, 149, 42, 189, 196, 139, 45, 109, 57, 244, 72, 95, 2, 0, 124, 5, 0, 248, 18, 0, 224, 16, 0, 192, 65, 34, 222, 124, 230, 167, 3, 160, 129, 0, 0, 7, 0, 144, 49, 227, 211, 187, 30, 19, 0, 160, 75, 120, 64, 137, 47, 0, 0, 44, 251, 0, 164, 153, 62, 64, 26, 12, 144, 13, 0, 0, 0, 0, 0, 208, 239, 225, 170, 37, 59, 15, 174, 31, 198, 45, 120, 248, 173, 246, 86, 0, 128, 46, 251, 0, 0, 204, 26, 206, 117, 105, 2, 64, 20, 251, 29, 205, 99, 168, 80, 128, 2, 56, 31, 2, 88, 160, 149, 52, 168, 143, 241, 114, 7, 84, 0, 0, 200, 209, 240, 205, 234, 131, 179, 86, 2, 0, 168, 39, 72, 199, 85, 9, 0, 0, 0, 106, 58, 234, 220, 188, 161, 0, 0, 0, 128, 154, 0, 48, 62, 156, 206, 216, 111, 237, 207, 79, 7, 222, 211, 58, 36, 145, 238, 126, 36, 225, 247, 135, 127, 25, 216, 85, 75, 200, 120, 132, 181, 237, 205, 88, 145, 9, 182, 174, 201, 71, 134, 8, 70, 204, 12, 253, 103, 224, 79, 122, 160, 151, 219, 14, 3, 209, 208, 6, 49, 243, 228, 205, 195, 55, 54, 136, 4, 66, 2, 18, 24, 116, 127, 195, 12, 198, 215, 92, 223, 145, 62, 145, 31, 168, 148, 98, 110, 115, 165, 121, 121, 23, 99, 92, 46, 54, 254, 126, 251, 153, 1, 171, 255, 170, 154, 29, 96, 59, 182, 99, 67, 227, 39, 6, 124, 181, 130, 65, 138, 150, 230, 251, 69, 216, 41, 45, 139, 136, 157, 80, 106, 165, 26, 56, 226, 147, 106, 254, 196, 150, 125, 42, 220, 34, 193, 230, 115, 145, 121, 91, 4, 200, 193, 230, 117, 39, 128, 119, 136, 0, 92, 64, 70, 112, 148, 109, 71, 232, 79, 149, 54, 0, 0, 0, 4, 168, 221, 251, 143, 238, 79, 214, 163, 104, 0, 0, 192, 195, 1, 0, 181, 21, 88, 0, 0, 30, 216, 187, 10, 23, 107, 63, 244, 173, 166, 247, 150, 156, 76, 71, 247, 126, 7, 211, 77, 102, 126, 172, 125, 133, 221, 251, 243, 145, 36, 27, 232, 117, 61, 4, 181, 47, 1, 0, 190, 4, 0, 56, 30, 0, 152, 89, 115, 116, 8, 0, 160, 33, 98, 143, 127, 173, 118, 18, 26, 0, 0, 208, 8, 108, 107, 61, 150, 168, 127, 7, 128, 99, 2, 0, 124, 9, 0, 16, 155, 0, 164, 144, 12, 0, 0, 0, 0, 0, 0, 211, 241, 151, 98, 7, 201, 148, 214, 58, 118, 215, 19, 124, 28, 110, 188, 3, 0, 96, 247, 0, 107, 109, 23, 177, 77, 128, 232, 106, 197, 235, 61, 0, 160, 142, 13, 62, 142, 190, 136, 66, 46, 0, 207, 158, 0, 17, 143, 246, 211, 84, 131, 228, 222, 251, 154, 228, 232, 85, 125, 84, 0, 43, 2, 184, 91, 1, 0, 184, 14, 108, 7, 68, 84, 1, 0, 128, 237, 74, 254, 216, 178, 181, 101, 255, 193, 170, 69, 59, 61, 177, 91, 183, 125, 194, 207, 219, 210, 14, 41, 71, 69, 52, 101, 52, 88, 253, 241, 188, 62, 72, 86, 255, 125, 190, 90, 182, 8, 228, 137, 4, 109, 181, 248, 161, 103, 126, 65, 196, 153, 107, 20, 8, 182, 32, 202, 186, 253, 227, 131, 113, 136, 156, 147, 107, 16, 69, 17, 101, 159, 154, 100, 150, 144, 197, 147, 215, 73, 126, 175, 124, 249, 107, 98, 205, 86, 105, 129, 144, 33, 72, 25, 178, 219, 238, 218, 118, 219, 248, 70, 232, 103, 28, 172, 123, 32, 130, 21, 44, 176, 9, 80, 53, 72, 130, 84, 183, 178, 78, 247, 150, 171, 132, 24, 108, 223, 11, 62, 164, 153, 151, 51, 139, 131, 151, 120, 231, 155, 204, 4, 116, 163, 0, 0, 0, 18, 214, 10, 2, 246, 0, 224, 68, 236, 134, 121, 7, 126, 227, 240, 42, 42, 110, 27, 0, 9, 65, 88, 89, 49, 203, 11, 111, 72, 224, 185, 91, 0, 0, 0, 0, 0, 0, 0, 249, 7, 242, 215, 220, 28, 97, 0, 0, 0, 0, 56, 38, 0, 0, 254, 215, 59, 76, 9, 102, 68, 223, 164, 107, 115, 152, 174, 214, 245, 38, 154, 74, 201, 39, 45, 75, 163, 37, 103, 30, 134, 227, 53, 223, 255, 182, 114, 32, 57, 118, 190, 4, 0, 248, 6, 0, 0, 26, 79, 128, 192, 252, 230, 253, 60, 14, 1, 0, 60, 14, 15, 0, 39, 239, 190, 204, 4, 26, 8, 0, 208, 0, 0, 128, 245, 73, 76, 231, 245, 53, 7, 208, 37, 116, 235, 10, 95, 4, 0, 88, 86, 0, 164, 144, 12, 0, 0, 0, 0, 0, 0, 59, 172, 189, 174, 214, 102, 108, 97, 43, 17, 37, 175, 0, 0, 140, 62, 32, 193, 238, 21, 85, 68, 42, 219, 184, 245, 221, 40, 120, 237, 129, 180, 25, 169, 125, 185, 7, 0, 35, 255, 7, 82, 159, 26, 144, 83, 178, 98, 16, 43, 227, 134, 161, 22, 22, 240, 0, 198, 79, 36, 0, 128, 168, 233, 187, 167, 203, 41, 15, 1, 4, 0, 198, 23, 238, 223, 220, 20, 217, 3, 0, 174, 29, 46, 214, 227, 65, 5, 0, 65, 129, 195, 213, 140, 216, 189, 90, 247, 108, 229, 217, 140, 185, 82, 109, 64, 219, 129, 195, 142, 12, 212, 76, 239, 44, 81, 145, 229, 230, 117, 125, 94, 98, 62, 178, 178, 13, 27, 45, 108, 17, 56, 179, 213, 250, 218, 15, 87, 111, 142, 42, 145, 104, 102, 101, 247, 255, 39, 115, 97, 169, 2, 39, 149, 230, 155, 3, 69, 143, 189, 189, 249, 64, 207, 88, 143, 102, 69, 195, 35, 93, 14, 50, 70, 18, 177, 145, 43, 213, 40, 86, 91, 13, 128, 131, 198, 161, 234, 194, 218, 165, 42, 245, 227, 187, 47, 55, 208, 119, 125, 41, 1, 156, 124, 221, 9, 1, 9, 91, 186, 29, 154, 229, 220, 0, 165, 72, 97, 203, 47, 254, 229, 156, 175, 82, 147, 9, 71, 84, 1, 140, 108, 161, 48, 38, 250, 220, 8, 96, 253, 5, 12, 0, 0, 128, 93, 117, 66, 116, 198, 254, 173, 230, 86, 27, 0, 0, 0, 0, 17, 133, 22, 96, 222, 175, 84, 222, 139, 178, 157, 167, 0, 0, 0, 0, 77, 4, 0, 0, 190, 215, 219, 101, 137, 148, 15, 75, 75, 72, 237, 94, 146, 100, 162, 235, 235, 29, 174, 198, 202, 199, 82, 203, 212, 111, 82, 4, 166, 75, 95, 113, 241, 232, 139, 0, 196, 226, 75, 0, 128, 47, 1, 0, 158, 128, 6, 212, 212, 230, 56, 4, 0, 208, 144, 228, 226, 251, 235, 3, 192, 31, 1, 0, 52, 4, 0, 227, 166, 202, 145, 54, 224, 88, 206, 102, 37, 247, 0, 248, 2, 0, 192, 151, 0, 0, 55, 224, 190, 0, 72, 163, 1, 72, 4, 0, 0, 0, 0, 0, 0, 85, 174, 70, 200, 89, 77, 249, 228, 5, 107, 107, 0, 0, 144, 5, 240, 8, 161, 126, 208, 41, 43, 164, 114, 189, 99, 36, 0, 64, 68, 172, 79, 119, 1, 11, 3, 96, 63, 29, 240, 149, 87, 210, 149, 179, 201, 75, 179, 107, 94, 152, 158, 248, 56, 148, 174, 168, 1, 128, 188, 104, 135, 252, 84, 1, 0, 240, 220, 1, 0, 80, 19, 0, 0, 0, 132, 224, 228, 63, 159, 32, 0, 0, 0, 132, 146, 38, 216, 58, 0, 0, 234, 56, 243, 226, 233, 252, 252, 59, 87, 255, 226, 88, 21, 54, 161, 61, 192, 14, 249, 13, 189, 165, 165, 138, 34, 179, 33, 65, 220, 109, 176, 182, 191, 219, 227, 126, 155, 159, 48, 194, 9, 70, 181, 245, 93, 219, 189, 20, 141, 65, 10, 220, 88, 34, 36, 26, 51, 18, 141, 252, 82, 191, 36, 213, 252, 124, 143, 150, 56, 127, 77, 137, 141, 185, 43, 82, 100, 196, 189, 113, 163, 252, 14, 79, 95, 249, 250, 254, 109, 27, 199, 9, 37, 184, 220, 193, 83, 91, 15, 194, 196, 147, 91, 35, 154, 138, 161, 73, 8, 187, 163, 8, 213, 177, 243, 150, 158, 89, 237, 171, 91, 103, 226, 89, 85, 215, 127, 226, 66, 239, 83, 8, 36, 194, 52, 155, 96, 140, 1, 150, 167, 33, 93, 63, 236, 228, 199, 236, 140, 8, 130, 32, 248, 113, 58, 1, 128, 116, 6, 72, 147, 235, 112, 245, 243, 80, 167, 90, 241, 5, 0, 112, 112, 2, 192, 235, 0, 0, 190, 215, 187, 184, 152, 204, 62, 116, 21, 166, 151, 10, 9, 211, 93, 235, 122, 135, 246, 201, 236, 67, 223, 94, 247, 210, 16, 155, 168, 191, 1, 0, 40, 62, 8, 95, 1, 0, 190, 4, 0, 120, 146, 66, 211, 128, 147, 51, 219, 113, 8, 0, 224, 16, 0, 64, 3, 0, 0, 26, 0, 0, 176, 56, 6, 218, 111, 116, 0, 116, 169, 200, 25, 143, 198, 49, 0, 208, 159, 61, 38, 15, 192, 253, 198, 6, 0, 144, 66, 50, 0, 0, 0, 0, 0, 0, 112, 15, 0, 114, 108, 224, 252, 253, 236, 115, 110, 229, 99, 172, 34, 70, 64, 141, 30, 0, 128, 238, 114, 0, 99, 196, 242, 255, 175, 92, 200, 91, 233, 148, 75, 0, 0, 112, 27, 0, 0, 246, 115, 2, 0, 208, 27, 234, 99, 240, 33, 1, 10, 192, 101, 129, 240, 250, 132, 139, 155, 155, 186, 235, 6, 0, 0, 32, 223, 187, 207, 222, 0, 0, 0, 192, 91, 156, 235, 23, 0, 0, 192, 246, 254, 199, 73, 177, 47, 141, 144, 129, 59, 80, 134, 235, 131, 116, 186, 207, 218, 51, 75, 56, 193, 110, 64, 39, 17, 214, 229, 6, 49, 11, 101, 148, 119, 49, 228, 68, 144, 132, 165, 237, 134, 40, 255, 158, 254, 219, 149, 30, 113, 50, 106, 175, 45, 46, 128, 24, 30, 118, 17, 102, 88, 186, 123, 205, 210, 110, 46, 9, 144, 46, 5, 6, 227, 29, 117, 131, 250, 238, 227, 55, 157, 234, 144, 31, 15, 243, 64, 8, 144, 136, 114, 230, 147, 156, 58, 65, 27, 152, 38, 19, 113, 60, 130, 138, 149, 71, 175, 190, 85, 126, 41, 213, 0, 33, 29, 138, 16, 4, 72, 19, 4, 128, 42, 84, 88, 190, 148, 99, 39, 183, 114, 100, 232, 229, 237, 105, 122, 112, 1, 178, 163, 1, 217, 192, 137, 102, 164, 61, 184, 112, 83, 29, 31, 255, 233, 87, 201, 34, 149, 28, 147, 182, 118, 67, 235, 138, 177, 8, 32, 0, 93, 241, 39, 79, 21, 0, 0, 0, 128, 98, 133, 54, 0, 30, 216, 123, 21, 89, 100, 233, 67, 223, 92, 150, 182, 95, 10, 96, 128, 191, 222, 181, 153, 114, 224, 135, 174, 202, 145, 50, 43, 221, 199, 15, 0, 213, 247, 240, 37, 0, 192, 87, 0, 128, 175, 0, 0, 135, 0, 0, 26, 185, 206, 66, 3, 1, 0, 248, 135, 4, 184, 188, 241, 151, 99, 191, 24, 2, 0, 142, 197, 127, 15, 0, 240, 39, 136, 85, 231, 56, 128, 35, 224, 79, 141, 37, 0, 41, 36, 3, 0, 0, 0, 0, 0, 64, 226, 156, 187, 111, 105, 162, 78, 148, 169, 44, 161, 89, 98, 102, 119, 203, 121, 186, 33, 211, 123, 218, 28, 10, 24, 55, 78, 0, 0, 94, 55, 0, 0, 209, 159, 60, 151, 9, 0, 89, 106, 188, 109, 218, 31, 92, 235, 58, 37, 3, 0, 175, 1, 0, 49, 68, 241, 176, 164, 167, 152, 29, 233, 98, 37, 248, 96, 114, 1, 82, 226, 216, 149, 162, 66, 0, 239, 39, 16, 210, 184, 114, 220, 214, 20, 0, 0, 192, 248, 115, 151, 98, 190, 114, 161, 29, 0, 0, 64, 69, 195, 173, 174, 36, 143, 237, 29, 21, 250, 136, 12, 83, 54, 176, 235, 151, 216, 213, 110, 160, 39, 34, 73, 194, 92, 106, 185, 171, 198, 33, 146, 22, 27, 113, 68, 68, 208, 137, 246, 110, 226, 195, 176, 61, 255, 114, 128, 16, 96, 187, 237, 48, 140, 186, 234, 245, 119, 56, 53, 109, 44, 98, 113, 86, 136, 36, 213, 242, 148, 8, 195, 180, 48, 27, 222, 236, 217, 124, 54, 28, 201, 55, 23, 159, 60, 83, 143, 99, 7, 32, 28, 33, 93, 97, 249, 161, 219, 33, 88, 7, 7, 165, 206, 28, 42, 79, 17, 0, 47, 223, 224, 191, 0, 232, 114, 131, 170, 122, 165, 240, 207, 215, 104, 65, 128, 115, 20, 2, 89, 0, 225, 125, 189, 64, 75, 0, 128, 97, 0, 0, 0, 56, 0, 128, 188, 5, 166, 157, 159, 231, 167, 10, 0, 0, 0, 213, 116, 226, 173, 0, 0, 126, 215, 219, 171, 73, 238, 63, 106, 46, 187, 40, 3, 250, 122, 215, 110, 154, 65, 124, 198, 213, 151, 163, 237, 34, 80, 248, 10, 0, 240, 21, 0, 224, 75, 0, 128, 47, 1, 0, 142, 194, 5, 0, 128, 6, 2, 0, 52, 4, 240, 233, 241, 209, 48, 240, 15, 221, 124, 14, 49, 238, 223, 152, 71, 156, 174, 2, 93, 194, 33, 129, 195, 96, 211, 242, 16, 0, 210, 168, 0, 146, 0, 0, 0, 0, 0, 0, 32, 60, 1, 0, 232, 79, 0, 0, 238, 2, 0, 0, 75, 41, 177, 40, 171, 224, 205, 250, 197, 154, 184, 229, 34, 158, 1, 0, 224, 238, 0, 36, 0, 84, 73, 247, 122, 180, 40, 65, 131, 195, 62, 17, 140, 77, 189, 40, 155, 11, 124, 247, 20, 65, 41, 40, 25, 32, 93, 107, 186, 89, 243, 0, 0, 0, 160, 134, 219, 172, 196, 70, 127, 140, 43, 0, 0, 64, 46, 244, 6, 159, 166, 141, 0, 0, 92, 168, 223, 184, 117, 143, 26, 165, 80, 202, 56, 59, 191, 26, 234, 227, 252, 244, 246, 127, 255, 238, 185, 163, 252, 91, 101, 44, 134, 252, 142, 150, 11, 140, 93, 247, 175, 29, 233, 158, 162, 94, 86, 200, 72, 30, 48, 152, 185, 172, 123, 253, 30, 151, 244, 28, 30, 66, 87, 253, 224, 230, 109, 244, 121, 118, 74, 79, 71, 134, 238, 245, 39, 112, 229, 47, 103, 218, 151, 91, 159, 67, 163, 160, 218, 192, 210, 37, 106, 228, 157, 110, 62, 107, 152, 219, 30, 27, 213, 87, 247, 120, 136, 124, 108, 190, 126, 86, 203, 9, 1, 0, 74, 208, 245, 125, 115, 205, 250, 251, 146, 143, 143, 63, 11, 121, 17, 17, 105, 183, 102, 149, 109, 251, 12, 154, 35, 149, 52, 1, 47, 139, 86, 134, 131, 186, 209, 125, 145, 249, 173, 37, 66, 27, 128, 207, 120, 131, 4, 96, 1, 192, 223, 245, 101, 130, 41, 37, 128, 0, 128, 37, 0, 0, 0, 0, 232, 119, 0, 192, 235, 234, 1, 0, 79, 103, 103, 83, 0, 4, 0, 180, 0, 0, 0, 0, 0, 0, 74, 225, 57, 5, 6, 0, 0, 0, 190, 184, 112, 249, 1, 0 )
