[gd_scene load_steps=6 format=2]

[ext_resource path="res://assets/Request.tres" type="DynamicFont" id=1]
[ext_resource path="res://assets/images/bg.jpg" type="Texture" id=2]
[ext_resource path="res://src/ui/TitleScreen.gd" type="Script" id=3]
[ext_resource path="res://assets/images/rocket_on.png" type="Texture" id=4]
[ext_resource path="res://assets/sounds/bg_music.wav" type="AudioStream" id=5]

[node name="TitleScreen" type="Control"]
anchor_right = 1.0
anchor_bottom = 1.0
script = ExtResource( 3 )
__meta__ = {
"_edit_use_anchors_": false
}

[node name="background" type="TextureRect" parent="."]
anchor_right = 1.0
anchor_bottom = 1.0
rect_scale = Vector2( 0.668, 0.668 )
texture = ExtResource( 2 )
stretch_mode = 1
__meta__ = {
"_edit_use_anchors_": false
}

[node name="StartButton" type="Button" parent="."]
anchor_left = 0.5
anchor_top = 0.5
anchor_right = 0.5
anchor_bottom = 0.5
margin_left = -79.5
margin_top = -29.0
margin_right = 79.5
margin_bottom = 32.0
grow_horizontal = 2
grow_vertical = 2
custom_fonts/font = ExtResource( 1 )
text = "start"
__meta__ = {
"_edit_use_anchors_": false
}

[node name="Quit" type="Button" parent="."]
anchor_left = 0.5
anchor_top = 0.5
anchor_right = 0.5
anchor_bottom = 0.5
margin_left = -79.5
margin_top = 45.0
margin_right = 79.5
margin_bottom = 29.0
custom_fonts/font = ExtResource( 1 )
text = "Quit"
__meta__ = {
"_edit_use_anchors_": false
}

[node name="TextureRect" type="TextureRect" parent="."]
anchor_left = 0.5
anchor_top = 0.5
anchor_right = 0.5
anchor_bottom = 0.5
margin_left = -55.0
margin_top = -52.0
margin_right = 55.0
margin_bottom = -320.0
grow_horizontal = 2
grow_vertical = 2
texture = ExtResource( 4 )

[node name="AudioStreamPlayer" type="AudioStreamPlayer" parent="."]
stream = ExtResource( 5 )
volume_db = -23.228
autoplay = true

[connection signal="pressed" from="StartButton" to="." method="_on_StartButton_pressed"]
[connection signal="pressed" from="Quit" to="." method="_on_Quit_pressed"]
